Lab 10/Experimental Values/NMOS 2n7000(2).csv

#Digilent WaveForms Oscilloscope Acquisition
#Device Name: Discovery2NI
#Serial Number: SN:210321A291F6
#Date Time: 2018-04-09 22:12:20.297
#Sample rate: 11904.8Hz
#Samples: 256
#Trigger: Source: Channel 1 Type: Edge Condition: Rising Level: 0 V Hyst.: Auto HoldOff: 0 s
#Channel 1: Range: 500 mV/div Offset: 0 V
#Channel 2: Range: 500 mV/div Offset: 0 V

Time (s),Channel 1 (V),Channel 2 (V)
-0.011004,0.0073868399690261034,1.2735703826707871
-0.010920000000000001,0.0073868399690261034,1.2946518600312884
-0.010836,0.0073868399690261034,1.3157333373917899
-0.010752000000000001,0.0073868399690261034,1.3368148147522916
-0.010668,0.0073868399690261034,1.3578962921127931
-0.010584000000000001,0.0073868399690261034,1.3786431428485246
-0.010500000000000001,0.0077212296468589809,1.3997246202090263
-0.010416,0.0073868399690261034,1.420806097569528
-0.010332000000000001,0.0073868399690261034,1.4415529483052596
-0.010248,0.0073868399690261034,1.4626344256657611
-0.010164000000000001,0.0073868399690261034,1.4837159030262628
-0.01008,0.0073868399690261034,1.5047973803867642
-0.0099960000000000014,0.0077212296468589757,1.5255442311224958
-0.0099120000000000007,0.0077212296468589809,1.5462910818582276
-0.0098279999999999999,0.0077212296468589852,1.5673725592187295
-0.0097440000000000009,0.0080556193246918584,1.5884540365792308
-0.0096600000000000002,0.0080556193246918584,1.6092008873149624
-0.0095760000000000012,0.008390009002524736,1.630616991300234
-0.0094920000000000004,0.008390009002524736,1.6513638420359655
-0.0094080000000000014,0.0087243986803576066,1.6724453193964668
-0.0093240000000000007,0.0090587883581904893,1.6931921701321988
-0.0092399999999999999,0.0093931780360233755,1.7142736474927005
-0.0091560000000000009,0.01006195739168912,1.735355124853202
-0.0090720000000000002,0.010396347069521998,1.7564366022137035
-0.0089880000000000012,0.011065126425187753,1.7771834529494352
-0.0089040000000000005,0.012068295458686384,1.7982649303099367
-0.0088200000000000014,0.013071464492185001,1.819346407670438
-0.0087360000000000007,0.014743412881349401,1.84009325840617
-0.008652,0.016415361270513816,1.8608401091419018
-0.008568000000000001,0.01842169933751105,1.8822562131271732
-0.0084840000000000002,0.021096816760174067,1.9033376904876746
-0.0084000000000000012,0.02410632386066992,1.9240845412234062
-0.0083160000000000005,0.027784610316831611,1.9451660185839079
-0.0082320000000000015,0.032800455484324698,1.9662474959444092
-0.0081480000000000007,0.038150690329650808,1.9876635999296808
-0.008064,0.045172873564141222,2.0084104506654121
-0.007980000000000001,0.053532615509963029,2.0294919280259136
-0.0078960000000000002,0.063564305844949473,2.0505734053864155
-0.0078119999999999995,0.075602334246933051,2.071654882746917
-0.0077279999999999996,0.089981090393746771,2.0927363601074185
-0.0076439999999999998,0.1070349639632235,2.1134832108431501
-0.0075599999999999999,0.12776712398886189,2.134564688203652
-0.007476,0.15184318079282905,2.1553115389393835
-0.0073920000000000001,0.1802663034086236,2.176393016299885
-0.0073079999999999994,0.21403966086974419,2.1974744936603865
-0.0072239999999999995,0.25282886349835793,2.218555971020888
-0.0071399999999999996,0.29797147000579632,2.23930282175662
-0.0070559999999999998,0.35080503910339095,2.2603842991171215
-0.0069719999999999999,0.41099518111330879,2.2814657764776229
-0.006888,0.48088262378038016,2.3025472538381244
-0.0068039999999999993,0.55879541871544058,2.3232941045738564
-0.0067199999999999994,0.64908063173031738,2.3443755819343579
-0.0066359999999999995,0.74939753508018059,2.3654570592948594
-0.0065519999999999997,0.8640931945768574,2.3865385366553609
-0.0064679999999999998,0.99015810311985208,2.4072853873910924
-0.0063839999999999999,1.1319393265209918,2.4283668647515939
-0.0063,1.2884336957467784,2.4491137154873259
-0.0062159999999999993,1.4603099901528773,2.4698605662230575
-0.0061319999999999994,1.2426223098836742,1.9003260508647459
-0.0060479999999999996,0.0067180606133603491,0.015039646911320937
-0.0059639999999999997,0.0073868399690261034,0.035117244397512896
-0.0058799999999999998,0.0073868399690261034,0.05619872175801445
-0.0057959999999999999,0.0073868399690261034,0.07728019911851601
-0.0057120000000000001,0.0073868399690261034,0.098027049854247705
-0.0056279999999999993,0.0073868399690261034,0.11877390058997939
-0.0055439999999999994,0.0073868399690261034,0.13985537795048092
-0.0054599999999999996,0.0073868399690261034,0.16093685531098251
-0.0053759999999999997,0.0073868399690261034,0.18168370604671419
-0.0052919999999999998,0.0073868399690261034,0.20276518340721572
-0.005208,0.0073868399690261034,0.22351203414294746
-0.0051240000000000001,0.0073868399690261034,0.24492813812821884
-0.0050399999999999993,0.0073868399690261034,0.26567498886395058
-0.0049559999999999995,0.0073868399690261034,0.28675646622445211
-0.0048719999999999996,0.0073868399690261034,0.3078379435849537
-0.0047879999999999997,0.0073868399690261034,0.32891942094545523
-0.0047039999999999998,0.0073868399690261034,0.35000089830595676
-0.00462,0.0073868399690261034,0.3707477490416885
-0.0045360000000000001,0.0073868399690261034,0.39182922640219003
-0.0044519999999999994,0.0073868399690261034,0.41291070376269157
-0.0043679999999999995,0.0073868399690261034,0.43399218112319315
-0.0042839999999999996,0.0073868399690261034,0.45473903185892484
-0.0041999999999999997,0.0073868399690261034,0.47582050921942642
-0.0041159999999999999,0.0073868399690261034,0.49723661320469781
-0.004032,0.0073868399690261034,0.51798346394042949
-0.0039480000000000001,0.0073868399690261034,0.53906494130093108
-0.0038640000000000002,0.0073868399690261034,0.56014641866143267
-0.0037799999999999999,0.0073868399690261034,0.58089326939716435
-0.0036960000000000001,0.0073868399690261034,0.60164012013289603
-0.0036120000000000002,0.0073868399690261034,0.62272159749339751
-0.0035279999999999999,0.0073868399690261034,0.6434684482291293
-0.003444,0.0073868399690261034,0.66488455221440068
-0.0033600000000000001,0.0073868399690261034,0.68596602957490227
-0.0032760000000000003,0.0073868399690261034,0.70704750693540375
-0.003192,0.0073868399690261034,0.72812898429590533
-0.0031080000000000001,0.0073868399690261034,0.74887583503163702
-0.0030240000000000002,0.0073868399690261034,0.7699573123921386
-0.0029399999999999999,0.0073868399690261034,0.79070416312787029
-0.002856,0.0073868399690261034,0.81178564048837187
-0.0027720000000000002,0.0073868399690261034,0.83286711784887335
-0.0026880000000000003,0.0073868399690261034,0.85428322183414485
-0.002604,0.0070524502911932267,0.87503007256987653
-0.0025200000000000001,0.0073868399690261034,0.89577692330560821
-0.0024360000000000002,0.0073868399690261034,0.91652377404133989
-0.0023519999999999999,0.0073868399690261034,0.93727062477707157
-0.0022680000000000001,0.0073868399690261034,0.95868672876234295
-0.0021840000000000002,0.0073868399690261034,0.97943357949807464
-0.0020999999999999999,0.0073868399690261034,1.000849683483346
-0.002016,0.0073868399690261034,1.0215965342190778
-0.0019320000000000001,0.0073868399690261034,1.0426780115795793
-0.001848,0.0073868399690261034,1.0634248623153111
-0.0017640000000000002,0.0073868399690261034,1.0841717130510427
-0.0016800000000000001,0.0073868399690261034,1.1055878170363143
-0.001596,0.0073868399690261034,1.1266692943968157
-0.0015120000000000001,0.0073868399690261034,1.1474161451325473
-0.001428,0.0073868399690261034,1.168497622493049
-0.0013440000000000001,0.0073868399690261034,1.1895790998535505
-0.0012600000000000001,0.0073868399690261034,1.2103259505892823
-0.001176,0.0073868399690261034,1.2314074279497838
-0.0010920000000000001,0.0073868399690261034,1.2518196520607456
-0.001008,0.0073868399690261034,1.2729011294212471
-0.00092399999999999991,0.0073868399690261034,1.2939826067817488
-0.00084000000000000003,0.0073868399690261034,1.3147294575174804
-0.00075599999999999994,0.0073868399690261034,1.3358109348779819
-0.00067200000000000007,0.0073868399690261034,1.3568924122384836
-0.00058799999999999998,0.0073868399690261034,1.377973889598985
-0.000504,0.0073868399690261034,1.3987207403347168
-0.00042000000000000002,0.0073868399690261034,1.4198022176952183
-0.00033599999999999998,0.0073868399690261034,1.4405490684309501
-0.000252,0.0073868399690261034,1.4612959191666817
-0.00016800000000000002,0.0073868399690261034,1.4823773965271831
-8.4000000000000009e-05,0.0073868399690261034,1.5037935005124548
0,0.0077212296468589809,1.5242057246234164
8.3999999999999982e-05,0.0077212296468589809,1.5452872019839181
0.00016800000000000002,0.0077212296468589809,1.5663686793444196
0.000252,0.0077212296468589809,1.5874501567049211
0.00033599999999999998,0.0080556193246918584,1.6081970074406529
0.00041999999999999996,0.008390009002524736,1.6292784848011543
0.00050400000000000011,0.008390009002524736,1.6500253355368861
0.00058799999999999998,0.0087243986803576118,1.6711068128973876
0.00067200000000000007,0.0090587883581904893,1.6921882902578893
0.00075599999999999994,0.0093931780360233669,1.7132697676183908
0.00084000000000000003,0.0097275677138562444,1.7343512449788923
0.00092399999999999991,0.010396347069521998,1.7550980957146241
0.001008,0.011065126425187753,1.7761795730751255
0.0010919999999999999,0.012068295458686384,1.7972610504356272
0.001176,0.013071464492185015,1.8183425277961287
0.0012600000000000001,0.014409023203516525,1.8390893785318603
0.0013439999999999999,0.016080971592680911,1.860170855892362
0.001428,0.01842169933751105,1.8812523332528635
0.0015119999999999999,0.020762427082341189,1.9019991839885952
0.001596,0.024106323860669961,1.9230806613490967
0.0016800000000000001,0.027784610316831611,1.9441621387095982
0.0017639999999999999,0.032466065806491889,1.9652436160700999
0.0018479999999999998,0.03781630065181793,1.9863250934306014
0.0019320000000000001,0.044838483886308345,2.0074065707911029
0.002016,0.052863836154297392,2.0284880481516043
0.0020999999999999999,0.062895526489283718,2.0495695255121058
0.0021840000000000002,0.074933554891267296,2.0703163762478374
0.0022680000000000001,0.089312311038081016,2.0913978536083393
0.0023519999999999999,0.10636618460755774,2.1124793309688408
0.0024359999999999998,0.12676395495536324,2.1332261817045723
0.0025200000000000001,0.15050562208149754,2.1543076590650738
0.002604,0.17892874469729209,2.1753891364255753
0.0026879999999999999,0.21203332280274692,2.1964706137860772
0.0027720000000000002,0.2504881357535278,2.2172174645218088
0.002856,0.29596513193879909,2.2382989418823103
0.0029399999999999999,0.34812992168072793,2.2593804192428117
0.0030239999999999998,0.40865445336847867,2.2804618966033132
0.0031080000000000001,0.47720433732421846,2.3012087473390452
0.003192,0.55511713225927894,2.3222902246995467
0.0032759999999999998,0.64406478656282429,2.3433717020600482
0.0033600000000000001,0.74505046926835317,2.3644531794205497
0.003444,0.85707101134236696,2.3852000301562812
0.0035279999999999999,0.98413908891886037,2.4062815075167832
0.0036120000000000002,1.1249171432865015,2.4273629848772846
0.0036960000000000001,1.2797395641231237,2.4477752089882463
0.0037799999999999999,1.4519502482070554,2.4688566863487478
0.0038639999999999998,1.3228758325635648,2.0251417819039057
0.0039480000000000001,0.0067180606133603491,0.014705020286551072
0.0040320000000000009,0.0073868399690261034,0.034447991147973166
0.0041160000000000007,0.0073868399690261034,0.054860215258934988
0.0042000000000000006,0.0073868399690261034,0.075941692619436549
0.0042840000000000005,0.0073868399690261034,0.097023169979938095
0.0043680000000000004,0.0073868399690261034,0.11777002071566979
0.0044520000000000002,0.0073868399690261034,0.13885149807617136
0.0045360000000000001,0.0073868399690261034,0.15959834881190305
0.0046200000000000008,0.0073868399690261034,0.18067982617240458
0.0047040000000000007,0.0073868399690261034,0.20176130353290617
0.0047880000000000006,0.0073868399690261034,0.2228427808934077
0.0048720000000000005,0.0073868399690261034,0.24358963162913938
0.0049560000000000003,0.0073868399690261034,0.26467110898964097
0.0050400000000000002,0.0073868399690261034,0.2857525863501425
0.0051240000000000001,0.0073868399690261034,0.30683406371064409
0.0052080000000000008,0.0073868399690261034,0.32791554107114562
0.0052920000000000007,0.0073868399690261034,0.34899701843164721
0.0053760000000000006,0.0073868399690261034,0.36974386916737889
0.0054600000000000004,0.0073868399690261034,0.39082534652788042
0.0055440000000000003,0.0073868399690261034,0.41190682388838201
0.0056280000000000002,0.0073868399690261034,0.43265367462411369
0.0057120000000000001,0.0073868399690261034,0.45373515198461523
0.0057960000000000008,0.0073868399690261034,0.47481662934511681
0.0058800000000000007,0.0073868399690261034,0.49589810670561835
0.0059640000000000006,0.0073868399690261034,0.51664495744135008
0.0060480000000000004,0.0073868399690261034,0.53772643480185156
0.0061320000000000003,0.0073868399690261034,0.55880791216235315
0.0062160000000000002,0.0073868399690261034,0.57988938952285474
0.0063,0.0073868399690261034,0.60097086688335632
0.0063840000000000008,0.0073868399690261034,0.6220523442438578
0.0064680000000000007,0.0073868399690261034,0.64313382160435939
0.0065520000000000005,0.0073868399690261034,0.66354604571532116
0.0066360000000000004,0.0073868399690261034,0.68496214970059266
0.0067200000000000003,0.0073868399690261034,0.70604362706109414
0.0068040000000000002,0.0073868399690261034,0.72745973104636563
0.0068880000000000009,0.0073868399690261034,0.74820658178209731
0.0069720000000000008,0.0073868399690261034,0.76895343251782899
0.0070560000000000006,0.0073868399690261034,0.79003490987833058
0.0071400000000000005,0.0073868399690261034,0.81078176061406226
0.0072240000000000004,0.0073868399690261034,0.83186323797456374
0.0073080000000000003,0.0073868399690261034,0.85294471533506533
0.0073920000000000001,0.0073868399690261034,0.87369156607079701
0.0074760000000000009,0.0073868399690261034,0.89443841680652869
0.0075600000000000007,0.0073868399690261034,0.91585452079180019
0.0076440000000000006,0.0073868399690261034,0.93660137152753187
0.0077280000000000014,0.0073868399690261034,0.95768284888803334
0.0078120000000000004,0.0073868399690261034,0.97876432624853493
0.0078960000000000002,0.0073868399690261034,0.99984580360903652
0.0079799999999999992,0.0073868399690261034,1.0205926543447683
0.008064,0.0073868399690261034,1.0416741317052698
0.008147999999999999,0.0073868399690261034,1.0624209824410014
0.0082319999999999997,0.0073868399690261034,1.0835024598015031
0.0083160000000000005,0.0073868399690261034,1.1045839371620045
0.0083999999999999995,0.0073868399690261034,1.125665414522506
0.0084840000000000002,0.0073868399690261034,1.1464122652582378
0.0085679999999999992,0.0073868399690261034,1.1671591159939696
0.008652,0.0073868399690261034,1.1882405933544711
0.008735999999999999,0.0073868399690261034,1.2093220707149726
0.0088199999999999997,0.0073868399690261034,1.2304035480754743
0.0089040000000000005,0.0073868399690261034,1.2508157721864359
0.0089879999999999995,0.0073868399690261034,1.2715626229221677
0.0090720000000000002,0.0073868399690261034,1.2923094736578993
0.0091559999999999992,0.0073868399690261034,1.3137255776431709
0.0092399999999999999,0.0073868399690261034,1.3348070550036724
0.009323999999999999,0.0073868399690261034,1.3558885323641738
0.0094079999999999997,0.0073868399690261034,1.3766353830999056
0.0094920000000000004,0.0073868399690261034,1.3977168604604071
0.0095759999999999994,0.0073868399690261034,1.4187983378209088
0.0096600000000000002,0.0073868399690261034,1.4398798151814103
0.0097439999999999992,0.0073868399690261034,1.4606266659171419
0.0098279999999999999,0.0073868399690261034,1.4817081432776436
0.0099119999999999989,0.0073868399690261034,1.5024549940133751
0.0099959999999999997,0.0073868399690261034,1.5235364713738768
0.01008,0.0077212296468589809,1.5442833221096084
0.010163999999999999,0.0077212296468589809,1.5653647994701101
0.010248,0.0077212296468589809,1.5864462768306116
0.010331999999999999,0.0080556193246918584,1.607527754191113
0.010416,0.008390009002524736,1.6282746049268448
