Lab 10/Experimental Values/NMOS 2n7000.csv

#Digilent WaveForms Oscilloscope Acquisition
#Device Name: Discovery2NI
#Serial Number: SN:210321A291F6
#Date Time: 2018-04-09 19:32:55.512
#Sample rate: 10000Hz
#Samples: 256
#Trigger: Source: Channel 1 Type: Edge Condition: Rising Level: 0 V Hyst.: Auto HoldOff: 0 s
#Channel 1: Range: 500 mV/div Offset: 0 V
#Channel 2: Range: 500 mV/div Offset: 0 V

Time (s),Channel 1 (V),Channel 2 (V)
-0.012800000000000001,0.0053805019020288407,0.040805897018600615
-0.012699999999999999,0.0053805019020288407,0.06590289387634056
-0.0126,0.0053805019020288407,0.090665264109310653
-0.012500000000000001,0.0053805019020288407,0.11609688759182046
-0.0124,0.0053805019020288407,0.14085925782479053
-0.0123,0.0053805019020288407,0.1659562546825305
-0.012200000000000001,0.0053805019020288407,0.19071862491550021
-0.0121,0.0053805019020288407,0.21615024839801039
-0.012,0.0053805019020288407,0.24124724525575031
-0.011900000000000001,0.0053805019020288407,0.2660096154887201
-0.0118,0.0053805019020288407,0.2907719857216905
-0.0117,0.0053805019020288407,0.31620360920420032
-0.011599999999999999,0.0053805019020288407,0.34130060606194063
-0.0115,0.0053805019020288407,0.36639760291968021
-0.0114,0.0053805019020288407,0.39115997315265033
-0.011299999999999999,0.0053805019020288407,0.41659159663516043
-0.0112,0.0053805019020288407,0.44168859349290007
-0.0111,0.0053805019020288407,0.46645096372587014
-0.010999999999999999,0.0053805019020288407,0.49188258720837996
-0.0109,0.0053805019020288407,0.51664495744135008
-0.010800000000000001,0.0053805019020288407,0.54174195429909
-0.010699999999999999,0.0053805019020288407,0.56683895115682992
-0.0106,0.0053805019020288407,0.59160132138980004
-0.010500000000000001,0.0053805019020288407,0.61669831824753996
-0.0104,0.0053805019020288407,0.64212994173004978
-0.0103,0.0053805019020288407,0.6672269385877897
-0.010200000000000001,0.0053805019020288407,0.69198930882075949
-0.0101,0.0053805019020288407,0.71742093230326964
-0.01,0.0053805019020288407,0.74251792916100956
-0.0099000000000000008,0.0053805019020288407,0.76728029939397935
-0.0097999999999999997,0.0053805019020288407,0.79204266962694969
-0.0097000000000000003,0.0053805019020288407,0.81747429310945952
-0.0095999999999999992,0.0053805019020288407,0.84223666334242997
-0.0094999999999999998,0.0053805019020288407,0.86733366020016955
-0.0094000000000000004,0.0053805019020288407,0.89209603043313968
-0.0092999999999999992,0.0053805019020288407,0.91719302729087993
-0.0091999999999999998,0.0053805019020288407,0.94229002414861951
-0.0091000000000000004,0.0053805019020288407,0.96738702100635954
-0.0089999999999999993,0.0053805019020288407,0.99248401786409945
-0.0088999999999999999,0.0053805019020288407,1.0172463880970695
-0.0088000000000000005,0.0053805019020288407,1.0423433849548094
-0.0086999999999999994,0.0053805019020288407,1.0674403818125495
-0.0086,0.0053805019020288407,1.0925373786702894
-0.0085000000000000006,0.0053805019020288407,1.1169651222784895
-0.0083999999999999995,0.0053805019020288407,1.1423967457609994
-0.0083000000000000001,0.0053805019020288407,1.1674937426187393
-0.0082000000000000007,0.0053805019020288407,1.1925907394764794
-0.0080999999999999996,0.0053805019020288407,1.2173531097094494
-0.0080000000000000002,0.0053805019020288407,1.2424501065671893
-0.0079000000000000008,0.0053805019020288407,1.2665432235506193
-0.0077999999999999996,0.0053805019020288407,1.2916402204083597
-0.0077000000000000002,0.0053805019020288407,1.3167372172660996
-0.0076,0.0053805019020288407,1.3418342141238395
-0.0074999999999999997,0.0053805019020288407,1.3672658376063493
-0.0074000000000000003,0.0053805019020288407,1.3920282078393194
-0.0073000000000000001,0.0053805019020288407,1.4171252046970593
-0.0071999999999999998,0.0053805019020288407,1.4418875749300295
-0.0071000000000000004,0.0053805019020288407,1.4673191984125393
-0.0070000000000000001,0.0053805019020288407,1.4924161952702792
-0.0068999999999999999,0.0053805019020288407,1.5175131921280192
-0.0067999999999999996,0.0053805019020288407,1.5422755623609892
-0.0067000000000000002,0.0053805019020288407,1.5670379325939594
-0.0066,0.0053805019020288407,1.5918003028269294
-0.0064999999999999997,0.0053805019020288407,1.6168972996846693
-0.0064000000000000003,0.0057148915798617183,1.6423289231671792
-0.0063,0.0057148915798617183,1.6670912934001492
-0.0061999999999999998,0.0057148915798617183,1.6928575435074289
-0.0061000000000000004,0.0057148915798617183,1.7176199137403991
-0.0060000000000000001,0.0060492812576945949,1.7423822839733691
-0.0058999999999999999,0.0060492812576945949,1.7674792808311091
-0.0057999999999999996,0.0063836709355274725,1.792576277688849
-0.0057000000000000002,0.0067180606133603491,1.8180079011713588
-0.0055999999999999999,0.0070524502911932267,1.8427702714043288
-0.0054999999999999997,0.0073868399690261034,1.867532641637299
-0.0054000000000000003,0.0077212296468589809,1.892629638495039
-0.0053,0.008390009002524736,1.9177266353527789
-0.0051999999999999998,0.0093931780360233669,1.9424890055857489
-0.0051000000000000004,0.010396347069521998,1.9679206290682587
-0.0050000000000000001,0.012068295458686384,1.9930176259259986
-0.0048999999999999998,0.01374024384785077,2.0181146227837385
-0.0047999999999999996,0.015746581914848033,2.0432116196414785
-0.0047000000000000002,0.018756089015343928,2.0683086164992184
-0.0045999999999999999,0.022434375471505577,2.0934056133569583
-0.0044999999999999997,0.026781441283332978,2.1185026102146982
-0.0044000000000000003,0.031797286450826134,2.1432649804476682
-0.0043,0.038150690329650808,2.1683619773054081
-0.0041999999999999997,0.046176042597639855,2.1931243475383781
-0.0041000000000000003,0.055538953576960412,2.218555971020888
-0.0040000000000000001,0.066908202623278248,2.2433183412538584
-0.0038999999999999998,0.080283789736593322,2.2684153381115983
-0.0038,0.096668883950404308,2.2935123349693383
-0.0037000000000000002,0.11539470590904544,2.3186093318270782
-0.0035999999999999999,0.13746442464601533,2.3437063286848181
-0.0035000000000000001,0.16321242983914686,2.3684686989177881
-0.0033999999999999998,0.19330750084410581,2.3939003224002979
-0.0033,0.22741524798305929,2.4186626926332679
-0.0032000000000000002,0.26620445061167303,2.4437596894910079
-0.0030999999999999999,0.31034388808561281,2.4688566863487478
-0.0030000000000000001,0.28125198611415247,1.9709322686911876
-0.0028999999999999998,0.0053805019020288407,0.01738203328471
-0.0028,0.0053805019020288407,0.040805897018600615
-0.0027000000000000001,0.0053805019020288407,0.065568267251570694
-0.0025999999999999999,0.0053805019020288407,0.090330637484540788
-0.0025000000000000001,0.0053805019020288407,0.11609688759182046
-0.0023999999999999998,0.0053805019020288407,0.14119388444956044
-0.0023,0.0053805019020288407,0.16629088130730035
-0.0022000000000000001,0.0053805019020288407,0.19105325154027042
-0.0020999999999999999,0.0053805019020288407,0.21615024839801039
-0.002,0.0053805019020288407,0.24091261863098046
-0.0019,0.0057148915798617183,0.26600961548872043
-0.0018,0.0053805019020288407,0.2911066123464604
-0.0016999999999999999,0.0053805019020288407,0.31653823582897017
-0.0016000000000000001,0.0053805019020288407,0.34130060606194029
-0.0015,0.0053805019020288407,0.36673222954445012
-0.0014,0.0053805019020288407,0.39149459977742018
-0.0012999999999999999,0.0053805019020288407,0.4165915966351601
-0.0011999999999999999,0.0053805019020288407,0.44168859349290007
-0.0011000000000000001,0.0053805019020288407,0.46678559035063999
-0.001,0.0053805019020288407,0.49188258720837996
-0.00089999999999999998,0.0053805019020288407,0.51697958406611988
-0.00080000000000000004,0.0053805019020288407,0.54207658092385991
-0.00069999999999999999,0.0053805019020288407,0.56683895115682992
-0.00059999999999999995,0.0053805019020288407,0.59227057463933974
-0.00050000000000000001,0.0053805019020288407,0.61703294487230986
-0.00040000000000000002,0.0053805019020288407,0.64212994173004978
-0.00029999999999999997,0.0053805019020288407,0.6675615652125596
-0.00020000000000000001,0.0053805019020288407,0.69232393544552973
-0.0001,0.0053805019020288407,0.71742093230326964
0,0.0053805019020288407,0.74218330253623976
0.0001,0.0053805019020288407,0.76761492601874948
0.00020000000000000001,0.0053805019020288407,0.7923772962517196
0.00029999999999999997,0.0053805019020288407,0.81747429310945952
0.00040000000000000002,0.0053805019020288407,0.84257128996719954
0.00050000000000000001,0.0053805019020288407,0.86733366020016955
0.00059999999999999995,0.0053805019020288407,0.89243065705790958
0.00069999999999999999,0.0053805019020288407,0.91719302729087959
0.00080000000000000004,0.0053805019020288407,0.94229002414861951
0.00089999999999999998,0.0053805019020288407,0.96738702100635954
0.001,0.0053805019020288407,0.99214939123932955
0.0011000000000000001,0.0053805019020288407,1.0175810147218394
0.0011999999999999999,0.0053805019020288407,1.0423433849548094
0.0012999999999999999,0.0053805019020288407,1.0674403818125495
0.0014,0.0053805019020288407,1.0922027520455195
0.0015,0.0053805019020288407,1.1172997489032594
0.0016000000000000001,0.0057148915798617183,1.1423967457609994
0.0016999999999999999,0.0053805019020288407,1.1674937426187393
0.0018,0.0053805019020288407,1.1925907394764794
0.0019,0.0053805019020288407,1.2173531097094494
0.002,0.0053805019020288407,1.2424501065671893
0.0020999999999999999,0.0053805019020288407,1.2668778501753895
0.0022000000000000001,0.0053805019020288407,1.2919748470331296
0.0023,0.0053805019020288407,1.3170718438908695
0.0023999999999999998,0.0053805019020288407,1.3421688407486094
0.0025000000000000001,0.0053805019020288407,1.3672658376063493
0.0025999999999999999,0.0053805019020288407,1.3920282078393194
0.0027000000000000001,0.0053805019020288407,1.4171252046970593
0.0028,0.0053805019020288407,1.4425568281795691
0.0028999999999999998,0.0053805019020288407,1.4673191984125393
0.0030000000000000001,0.0053805019020288407,1.4924161952702792
0.0030999999999999999,0.0053805019020288407,1.5171785655032493
0.0032000000000000002,0.0053805019020288407,1.5422755623609892
0.0033,0.0053805019020288407,1.5673725592187293
0.0033999999999999998,0.0053805019020288407,1.5921349294516993
0.0035000000000000001,0.0053805019020288407,1.6172319263094392
0.0035999999999999999,0.0057148915798617183,1.6423289231671792
0.0037000000000000002,0.0057148915798617183,1.6674259200249191
0.0038,0.0057148915798617183,1.6921882902578893
0.0038999999999999998,0.0057148915798617183,1.7172852871156292
0.0040000000000000001,0.0057148915798617183,1.7423822839733691
0.0041000000000000003,0.0060492812576945949,1.7674792808311091
0.0041999999999999997,0.0063836709355274725,1.792576277688849
0.0043,0.0063836709355274725,1.8176732745465889
0.0044000000000000003,0.0067180606133603491,1.8427702714043288
0.0044999999999999997,0.0073868399690261034,1.8682018948868386
0.0045999999999999999,0.0077212296468589809,1.8932988917445788
0.0047000000000000002,0.008390009002524736,1.9177266353527789
0.0047999999999999996,0.0093931780360233669,1.9428236322105188
0.0048999999999999998,0.010396347069521998,1.9679206290682587
0.0050000000000000001,0.011733905780853506,1.9930176259259986
0.0051000000000000004,0.01374024384785077,2.0184492494085085
0.0051999999999999998,0.015746581914848033,2.0432116196414785
0.0053,0.018756089015343928,2.0683086164992184
0.0054000000000000003,0.022434375471505577,2.0934056133569583
0.0054999999999999997,0.026447051605500101,2.1181679835899283
0.0055999999999999999,0.031797286450826134,2.1432649804476682
0.0057000000000000002,0.038150690329650808,2.1683619773054081
0.0057999999999999996,0.046176042597639855,2.193793600787918
0.0058999999999999999,0.055538953576960412,2.218555971020888
0.0060000000000000001,0.066908202623278248,2.2433183412538584
0.0061000000000000004,0.080283789736593322,2.2684153381115983
0.0061999999999999998,0.09633449427257143,2.2935123349693383
0.0063,0.11539470590904544,2.3186093318270782
0.0064000000000000003,0.13779881432384819,2.3437063286848181
0.0064999999999999997,0.16354681951697975,2.368803325542558
0.0066,0.19297311116627294,2.3939003224002979
0.0067000000000000002,0.22674646862739353,2.418328066008498
0.0067999999999999996,0.26620445061167303,2.4437596894910079
0.0068999999999999999,0.31067827776344564,2.4688566863487478
0.0070000000000000001,0.27456419255749492,1.9230806613490967
0.0071000000000000004,0.0053805019020288407,0.017047406659940135
0.0071999999999999998,0.0053805019020288407,0.040805897018600615
0.0073000000000000001,0.0053805019020288407,0.065568267251570694
0.0074000000000000003,0.0053805019020288407,0.090665264109310653
0.0074999999999999997,0.0053805019020288407,0.1157622609670506
0.0076,0.0053805019020288407,0.14085925782479053
0.0077000000000000002,0.0053805019020288407,0.1659562546825305
0.0077999999999999996,0.0053805019020288407,0.19105325154027042
0.0079000000000000008,0.0053805019020288407,0.21615024839801039
0.0080000000000000002,0.0053805019020288407,0.24124724525575031
0.0080999999999999996,0.0053805019020288407,0.26567498886395058
0.0082000000000000007,0.0053805019020288407,0.2911066123464604
0.0083000000000000001,0.0053805019020288407,0.31586898257943047
0.0083999999999999995,0.0053805019020288407,0.34096597943717039
0.0085000000000000006,0.0053805019020288407,0.36639760291968021
0.0086,0.0053805019020288407,0.39115997315265033
0.0086999999999999994,0.0053805019020288407,0.4165915966351601
0.0088000000000000005,0.0053805019020288407,0.44168859349290007
0.0088999999999999999,0.0053805019020288407,0.46678559035063999
0.0089999999999999993,0.0053805019020288407,0.49188258720837996
0.0091000000000000004,0.0053805019020288407,0.51697958406611988
0.0091999999999999998,0.0053805019020288407,0.54174195429909
0.0092999999999999992,0.0053805019020288407,0.56650432453206012
0.0094000000000000004,0.0053805019020288407,0.59160132138980004
0.0094999999999999998,0.0053805019020288407,0.61669831824753996
0.0095999999999999992,0.0053805019020288407,0.64212994173004978
0.0097000000000000003,0.0053805019020288407,0.6672269385877897
0.0097999999999999997,0.0053805019020288407,0.69198930882075982
0.0099000000000000008,0.0053805019020288407,0.71742093230326964
0.01,0.0053805019020288407,0.74218330253623976
0.0101,0.0053805019020288407,0.76728029939397968
0.010200000000000001,0.0053805019020288407,0.7923772962517196
0.0103,0.0053805019020288407,0.81747429310945952
0.0104,0.0053805019020288407,0.84257128996719954
0.010500000000000001,0.0053805019020288407,0.86733366020016955
0.0106,0.0053805019020288407,0.89209603043313968
0.010699999999999999,0.0053805019020288407,0.91719302729087959
0.010800000000000001,0.0053805019020288407,0.94195539752384971
0.0109,0.0053805019020288407,0.96705239438158963
0.010999999999999999,0.0053805019020288407,0.99214939123932955
0.0111,0.0053805019020288407,1.0172463880970695
0.0112,0.0053805019020288407,1.0426780115795793
0.011299999999999999,0.0053805019020288407,1.0677750084373192
0.0114,0.0053805019020288407,1.0922027520455195
0.0115,0.0053805019020288407,1.1172997489032594
0.011599999999999999,0.0053805019020288407,1.1427313723857693
0.0117,0.0053805019020288407,1.1678283692435092
0.0118,0.0053805019020288407,1.1925907394764794
0.011900000000000001,0.0053805019020288407,1.2173531097094494
0.012,0.0053805019020288407,1.2424501065671893
0.0121,0.0053805019020288407,1.2668778501753895
0.012200000000000001,0.0053805019020288407,1.2919748470331296
0.0123,0.0053805019020288407,1.3167372172660996
0.0124,0.0053805019020288407,1.3418342141238395
0.012500000000000001,0.0053805019020288407,1.3669312109815794
0.0126,0.0053805019020288407,1.3920282078393194
0.012699999999999999,0.0053805019020288407,1.4171252046970593
