Lab 10/Experimental Values/PMOS CD4007.csv

#Digilent WaveForms Oscilloscope Acquisition
#Device Name: Discovery2NI
#Serial Number: SN:210321A291F6
#Date Time: 2018-04-09 21:57:46.995
#Sample rate: 11904.8Hz
#Samples: 256
#Trigger: Source: Channel 1 Type: Edge Condition: Rising Level: 0 V Hyst.: Auto HoldOff: 0 s
#Channel 1: Range: 500 mV/div Offset: 0 V
#Channel 2: Range: 500 mV/div Offset: 0 V

Time (s),Channel 1 (V),Channel 2 (V)
-0.011004,-0.056481588497053356,-2.2654408008953153
-0.010920000000000001,-0.050462574296061644,-2.2446939501595842
-0.010836,-0.045112339450735617,-2.2239470994238526
-0.010752000000000001,-0.039762104605409576,-2.2025309954385812
-0.010668,-0.035080649115749291,-2.1821187713276191
-0.010584000000000001,-0.031067972981754829,-2.1603680407175783
-0.010500000000000001,-0.027389686525593121,-2.1396211899818462
-0.010416,-0.023711400069431433,-2.1185397126213443
-0.010332000000000001,-0.021036282646768455,-2.0974582352608433
-0.010248,-0.018361165224105438,-2.0763767579003418
-0.010164000000000001,-0.016689216834941054,-2.0556299071646098
-0.01008,-0.015017268445776666,-2.0348830564288782
-0.0099960000000000014,-0.014014099412278049,-2.0138015790683772
-0.0099120000000000007,-0.013010930378779402,-1.9927201017078748
-0.0098279999999999999,-0.012342151023113644,-1.971973250972143
-0.0097440000000000009,-0.012007761345280771,-1.9508917736116416
-0.0096600000000000002,-0.012007761345280771,-1.93014492287591
-0.0095760000000000012,-0.011673371667447894,-1.9090634455154083
-0.0094920000000000004,-0.011338981989615018,-1.8883165947796767
-0.0094080000000000014,-0.011673371667447889,-1.8672351174191755
-0.0093240000000000007,-0.011673371667447894,-1.8461536400586736
-0.0092399999999999999,-0.011673371667447894,-1.8250721626981719
-0.0091560000000000009,-0.011673371667447894,-1.8039906853376704
-0.0090720000000000002,-0.011673371667447894,-1.7829092079771689
-0.0089880000000000012,-0.011673371667447894,-1.7618277306166674
-0.0089040000000000005,-0.011338981989615018,-1.7407462532561657
-0.0088200000000000014,-0.011338981989615018,-1.7196647758956645
-0.0087360000000000007,-0.011338981989615018,-1.6992525517847024
-0.008652,-0.011673371667447894,-1.6781710744242007
-0.008568000000000001,-0.011673371667447894,-1.6567549704389295
-0.0084840000000000002,-0.011673371667447894,-1.6360081197031977
-0.0084000000000000012,-0.011673371667447894,-1.6149266423426965
-0.0083160000000000005,-0.011673371667447894,-1.5941797916069644
-0.0082320000000000015,-0.011673371667447894,-1.5734329408712331
-0.0081480000000000007,-0.011673371667447894,-1.5523514635107312
-0.008064,-0.011673371667447894,-1.5312699861502297
-0.007980000000000001,-0.011673371667447894,-1.5101885087897284
-0.0078960000000000002,-0.011673371667447894,-1.4897762846787663
-0.0078119999999999995,-0.011673371667447894,-1.4683601806934949
-0.0077279999999999996,-0.011338981989615018,-1.4472787033329932
-0.0076439999999999998,-0.011673371667447894,-1.4261972259724918
-0.0075599999999999999,-0.011673371667447894,-1.4054503752367602
-0.007476,-0.011338981989615018,-1.3843688978762585
-0.0073920000000000001,-0.011338981989615018,-1.363287420515757
-0.0073079999999999994,-0.011338981989615018,-1.3422059431552555
-0.0072239999999999995,-0.011338981989615018,-1.3214590924195238
-0.0071399999999999996,-0.011673371667447894,-1.300712241683792
-0.0070559999999999998,-0.011673371667447894,-1.2796307643232905
-0.0069719999999999999,-0.011673371667447894,-1.258549286962789
-0.006888,-0.011673371667447894,-1.2381370628518271
-0.0068039999999999993,-0.011673371667447894,-1.2170555854913256
-0.0067199999999999994,-0.011673371667447894,-1.1959741081308239
-0.0066359999999999995,-0.011673371667447894,-1.1755618840198623
-0.0065519999999999997,-0.011673371667447894,-1.1541457800345907
-0.0064679999999999998,-0.011673371667447894,-1.1330643026740892
-0.0063839999999999999,-0.011673371667447894,-1.1123174519383574
-0.0063,-0.011673371667447894,-1.0915706012026258
-0.0062159999999999993,-0.011673371667447894,-1.0704891238421244
-0.0061319999999999994,-0.011673371667447894,-1.0494076464816227
-0.0060479999999999996,-0.011338981989615018,-1.0283261691211212
-0.0059639999999999997,-0.011338981989615018,-1.0072446917606197
-0.0058799999999999998,-0.011338981989615018,-0.98649784102488791
-0.0057959999999999999,-0.011338981989615018,-0.96575099028915623
-0.0057120000000000001,-0.011673371667447894,-0.94500413955342455
-0.0056279999999999993,-0.011673371667447894,-0.92392266219292296
-0.0055439999999999994,-0.011673371667447894,-0.90284118483242137
-0.0054599999999999996,-0.011673371667447894,-0.8817597074719199
-0.0053759999999999997,-0.011673371667447894,-0.86067823011141831
-0.0052919999999999998,-0.011673371667447894,-0.83959675275091672
-0.005208,-0.011673371667447894,-0.81884990201518504
-0.0051240000000000001,-0.011338981989615018,-0.79776842465468345
-0.0050399999999999993,-0.011338981989615018,-0.77668694729418197
-0.0049559999999999995,-0.011338981989615018,-0.75560546993368038
-0.0048719999999999996,-0.011673371667447894,-0.7345239925731788
-0.0047879999999999997,-0.011673371667447894,-0.71344251521267732
-0.0047039999999999998,-0.011673371667447894,-0.69269566447694553
-0.00462,-0.011673371667447894,-0.67194881374121385
-0.0045360000000000001,-0.011673371667447894,-0.65086733638071237
-0.0044519999999999994,-0.011673371667447894,-0.63012048564498069
-0.0043679999999999995,-0.011673371667447894,-0.60870438165970919
-0.0042839999999999996,-0.011673371667447894,-0.58762290429920772
-0.0041999999999999997,-0.011673371667447894,-0.56687605356347592
-0.0041159999999999999,-0.011338981989615018,-0.54579457620297445
-0.004032,-0.011673371667447894,-0.52471309884247286
-0.0039480000000000001,-0.011673371667447894,-0.50396624810674118
-0.0038640000000000002,-0.011673371667447894,-0.4832193973710095
-0.0037799999999999999,-0.011673371667447894,-0.46213792001050791
-0.0036960000000000001,-0.011673371667447894,-0.44105644265000638
-0.0036120000000000002,-0.011338981989615018,-0.41997496528950479
-0.0035279999999999999,-0.011673371667447894,-0.39889348792900325
-0.003444,-0.011338981989615018,-0.37747738394373181
-0.0033600000000000001,-0.011673371667447894,-0.35639590658323028
-0.0032760000000000003,-0.011673371667447894,-0.33531442922272875
-0.003192,-0.011338981989615018,-0.31456757848699701
-0.0031080000000000001,-0.011673371667447894,-0.29348610112649548
-0.0030240000000000002,-0.011338981989615018,-0.2727392503907638
-0.0029399999999999999,-0.011338981989615018,-0.25132314640549236
-0.002856,-0.011338981989615018,-0.23024166904499083
-0.0027720000000000002,-0.011338981989615018,-0.20916019168448924
-0.0026880000000000003,-0.011338981989615018,-0.18841334094875756
-0.002604,-0.011673371667447894,-0.16766649021302588
-0.0025200000000000001,-0.011338981989615018,-0.14658501285252434
-0.0024360000000000002,-0.011338981989615018,-0.12550353549202276
-0.0023519999999999999,-0.011673371667447894,-0.10442205813152121
-0.0022680000000000001,-0.011338981989615018,-0.083005954146249797
-0.0021840000000000002,-0.011338981989615018,-0.061924476785748236
-0.0020999999999999999,-0.011338981989615018,-0.040842999425246683
-0.002016,-0.011338981989615018,-0.020096148689514988
-0.0019320000000000001,-0.11366222340647543,-1.8822933155338191
-0.001848,-0.13807266988827546,-2.4755863212507916
-0.0017640000000000002,-0.12837536923112203,-2.4551740971398299
-0.0016800000000000001,-0.11867806857396858,-2.4340926197793284
-0.001596,-0.10998393695031378,-2.4133457690435964
-0.0015120000000000001,-0.1009554156488261,-2.392264291683095
-0.001428,-0.092930063380837036,-2.3715174409473634
-0.0013440000000000001,-0.084904711112847989,-2.3504359635868619
-0.0012600000000000001,-0.077213748522691819,-2.3290198596015905
-0.001176,-0.070191565288201391,-2.3086076354906284
-0.0010920000000000001,-0.063169382053710976,-2.2875261581301269
-0.001008,-0.056815978174886317,-2.2664446807696255
-0.00092399999999999991,-0.050796963973894521,-2.2456978300338939
-0.00084000000000000003,-0.045446729128568494,-2.2246163526733924
-0.00075599999999999994,-0.040096494283242454,-2.2038695019376604
-0.00067200000000000007,-0.035415038793582168,-2.1827880245771589
-0.00058799999999999998,-0.031402362659587651,-2.1620411738414274
-0.000504,-0.027389686525593121,-2.1409596964809259
-0.00042000000000000002,-0.024045789747264349,-2.1198782191204244
-0.00033599999999999998,-0.021370672324601332,-2.0987967417599225
-0.000252,-0.018695554901938315,-2.077715264399421
-0.00016800000000000002,-0.016689216834941054,-2.0569684136636894
-8.4000000000000009e-05,-0.015351658123609543,-2.035886936303188
0,-0.014014099412278035,-2.0144708323179166
8.3999999999999982e-05,-0.013010930378779402,-1.9937239815821846
0.00016800000000000002,-0.012342151023113649,-1.9733117574712227
0.000252,-0.012342151023113649,-1.9518956534859513
0.00033599999999999998,-0.012007761345280771,-1.9308141761254496
0.00041999999999999996,-0.011673371667447894,-1.9097326987649481
0.00050400000000000011,-0.011673371667447894,-1.8886512214044466
0.00058799999999999998,-0.011673371667447894,-1.8679043706687148
0.00067200000000000007,-0.011673371667447894,-1.8471575199329833
0.00075599999999999994,-0.011673371667447894,-1.8260760425724816
0.00084000000000000003,-0.011673371667447894,-1.8049945652119801
0.00092399999999999991,-0.011673371667447894,-1.7839130878514786
0.001008,-0.011673371667447894,-1.7628316104909769
0.0010919999999999999,-0.011673371667447894,-1.7417501331304754
0.001176,-0.011673371667447894,-1.7210032823947436
0.0012600000000000001,-0.011673371667447894,-1.6999218050342422
0.0013439999999999999,-0.011673371667447894,-1.6791749542985104
0.001428,-0.011673371667447894,-1.6580934769380089
0.0015119999999999999,-0.011673371667447894,-1.6370119995775074
0.001596,-0.011673371667447894,-1.6159305222170057
0.0016800000000000001,-0.011673371667447894,-1.5951836714812742
0.0017639999999999999,-0.011673371667447894,-1.5747714473703123
0.0018479999999999998,-0.011673371667447894,-1.5533553433850409
0.0019320000000000001,-0.011673371667447894,-1.5326084926493091
0.002016,-0.011338981989615018,-1.5115270152888076
0.0020999999999999999,-0.011673371667447894,-1.4904455379283061
0.0021840000000000002,-0.011673371667447894,-1.4690294339430345
0.0022680000000000001,-0.011338981989615018,-1.448282583207303
0.0023519999999999999,-0.011338981989615018,-1.4275357324715712
0.0024359999999999998,-0.011673371667447894,-1.4064542551110697
0.0025200000000000001,-0.011673371667447894,-1.3850381511257983
0.002604,-0.011673371667447894,-1.3642913003900665
0.0026879999999999999,-0.011338981989615018,-1.343209823029565
0.0027720000000000002,-0.011338981989615018,-1.3224629722938332
0.002856,-0.011673371667447894,-1.3017161215581017
0.0029399999999999999,-0.011673371667447894,-1.2806346441976002
0.0030239999999999998,-0.011673371667447894,-1.2598877934618684
0.0031080000000000001,-0.011338981989615018,-1.2394755693509065
0.003192,-0.011338981989615018,-1.218394091990405
0.0032759999999999998,-0.011338981989615018,-1.1969779880051337
0.0033600000000000001,-0.011673371667447894,-1.1765657638941718
0.003444,-0.011673371667447894,-1.1551496599089004
0.0035279999999999999,-0.011673371667447894,-1.1344028091731686
0.0036120000000000002,-0.011673371667447894,-1.1133213318126671
0.0036960000000000001,-0.011673371667447894,-1.0922398544521656
0.0037799999999999999,-0.011338981989615018,-1.0714930037164339
0.0038639999999999998,-0.011338981989615018,-1.0504115263559324
0.0039480000000000001,-0.011673371667447894,-1.0293300489954307
0.0040320000000000009,-0.011673371667447894,-1.0085831982596991
0.0041160000000000007,-0.011673371667447894,-0.98750172089919752
0.0042000000000000006,-0.011673371667447894,-0.96642024353869593
0.0042840000000000005,-0.011673371667447894,-0.94567339280296425
0.0043680000000000004,-0.011673371667447894,-0.92459191544246266
0.0044520000000000002,-0.011673371667447894,-0.90351043808196119
0.0045360000000000001,-0.011673371667447894,-0.88276358734622951
0.0046200000000000008,-0.011338981989615018,-0.86168210998572792
0.0047040000000000007,-0.011338981989615018,-0.84060063262522633
0.0047880000000000006,-0.011338981989615018,-0.81985378188949465
0.0048720000000000005,-0.011673371667447894,-0.79910693115376297
0.0049560000000000003,-0.011338981989615018,-0.77769082716849158
0.0050400000000000002,-0.011338981989615018,-0.75660934980798999
0.0051240000000000001,-0.011338981989615018,-0.73586249907225831
0.0052080000000000008,-0.011338981989615018,-0.71478102171175673
0.0052920000000000007,-0.011338981989615018,-0.69369954435125514
0.0053760000000000006,-0.011673371667447894,-0.67295269361552346
0.0054600000000000004,-0.011673371667447894,-0.65187121625502198
0.0055440000000000003,-0.011673371667447894,-0.63078973889452039
0.0056280000000000002,-0.011673371667447894,-0.6097082615340188
0.0057120000000000001,-0.011338981989615018,-0.58862678417351721
0.0057960000000000008,-0.011338981989615018,-0.56754530681301574
0.0058800000000000007,-0.011338981989615018,-0.54679845607728406
0.0059640000000000006,-0.011338981989615018,-0.52638623196632217
0.0060480000000000004,-0.011673371667447894,-0.50497012798105079
0.0061320000000000003,-0.011673371667447894,-0.4838886506205492
0.0062160000000000002,-0.011673371667447894,-0.46280717326004767
0.0063,-0.011673371667447894,-0.44172569589954608
0.0063840000000000008,-0.011338981989615018,-0.42064421853904455
0.0064680000000000007,-0.011673371667447894,-0.39956274117854301
0.0065520000000000005,-0.011338981989615018,-0.37848126381804142
0.0066360000000000004,-0.011673371667447894,-0.35739978645753989
0.0067200000000000003,-0.011338981989615018,-0.33665293572180821
0.0068040000000000002,-0.011673371667447894,-0.31557145836130662
0.0068880000000000009,-0.011338981989615018,-0.29482460762557494
0.0069720000000000008,-0.011673371667447894,-0.27374313026507341
0.0070560000000000006,-0.011673371667447894,-0.25232702627980197
0.0071400000000000005,-0.011673371667447894,-0.23158017554407029
0.0072240000000000004,-0.011673371667447894,-0.21016407155879885
0.0073080000000000003,-0.011673371667447894,-0.18975184744783702
0.0073920000000000001,-0.011673371667447894,-0.16867037008733549
0.0074760000000000009,-0.011673371667447894,-0.1475888927268339
0.0075600000000000007,-0.011673371667447894,-0.12650741536633237
0.0076440000000000006,-0.011673371667447894,-0.10542593800583082
0.0077280000000000014,-0.011338981989615018,-0.084009834020559393
0.0078120000000000004,-0.011338981989615018,-0.063262983284827698
0.0078960000000000002,-0.011338981989615018,-0.042181505924326144
0.0079799999999999992,-0.011338981989615018,-0.021100028563824588
0.008064,-0.10697442984981788,-1.7581468377441989
0.008147999999999999,-0.13840705956610833,-2.4765902011251013
0.0082319999999999997,-0.12870975890895489,-2.4558433503893697
0.0083160000000000005,-0.11934684792963433,-2.4350964996536377
0.0083999999999999995,-0.11031832662814665,-2.4143496489179062
0.0084840000000000002,-0.10162419500449185,-2.3932681715574047
0.0085679999999999992,-0.093264453058669913,-2.3721866941969032
0.008652,-0.085239100790680866,-2.3511052168364017
0.008735999999999999,-0.077548138200524697,-2.3303583661006697
0.0088199999999999997,-0.070525954966034268,-2.3096115153649381
0.0089040000000000005,-0.063503771731543854,-2.2885300380044367
0.0089879999999999995,-0.057150367852719194,-2.2674485606439352
0.0090720000000000002,-0.051131353651727399,-2.2467017099082032
0.0091559999999999992,-0.045781118806401372,-2.2256202325477017
0.0092399999999999999,-0.040430883961075331,-2.2048733818119701
0.009323999999999999,-0.035415038793582168,-2.1834572778266987
0.0094079999999999997,-0.031402362659587651,-2.1627104270909672
0.0094920000000000004,-0.027389686525593121,-2.1412943231056958
0.0095759999999999994,-0.024380179425097227,-2.1205474723699638
0.0096600000000000002,-0.021370672324601332,-2.0998006216342322
0.0097439999999999992,-0.018695554901938315,-2.0787191442737307
0.0098279999999999999,-0.017023606512773928,-2.0573030402884593
0.0099119999999999989,-0.015351658123609543,-2.0365561895527278
0.0099959999999999997,-0.014014099412278035,-2.0158093388169958
0.01008,-0.01334532005661228,-1.9947278614564941
0.010163999999999999,-0.012676540700946527,-1.9736463840959926
0.010248,-0.012342151023113649,-1.9528995333602608
0.010331999999999999,-0.012007761345280771,-1.9321526826245292
0.010416,-0.011673371667447894,-1.9110712052640275
