Lab 6/CorrectRamp Voltage Data.csv

#Digilent WaveForms Oscilloscope Acquisition
#Device Name: Discovery2NI
#Serial Number: SN:210321A291F6
#Date Time: 2018-03-07 17:10:26.557
#Sample rate: 20000Hz
#Samples: 256
#Trigger: Source: Channel 1 Type: Edge Condition: Either Level: 0 V Hyst.: Auto HoldOff: 0 s
#Channel 1: Range: 500 mV/div Offset: 0 V
#Channel 2: Range: 500 mV/div Offset: 0 V

Time (s),Channel 1 (V),Channel 2 (V)
0.13248148626438133,-0.50723887421576974,-0.0013570577024024952
0.13253148626438133,-0.49720718388078439,-0.0013570577024024572
0.13258148626438132,-0.48684110386796636,-0.0010224310776326291
0.13263148626438132,-0.47747819288864685,-0.001357057702402457
0.13268148626438131,-0.46711211287582893,-0.0013570577024024952
0.13273148626438133,-0.45674603286300514,-0.0010224310776327052
0.13278148626438133,-0.44671434252802,-0.0013570577024024572
0.13283148626438132,-0.43701704187086765,-0.0010224310776326291
0.13288148626438132,-0.42665096185804963,-0.001357057702402457
0.13293148626438131,-0.41695366120089711,-0.0013570577024024952
0.13298148626438133,-0.40692197086590642,-0.0010224310776327052
0.13303148626438133,-0.39689028053092124,-0.0013570577024024952
0.13308148626438132,-0.38685859019593599,-0.0013570577024024952
0.13313148626438132,-0.37716128953878358,-0.0013570577024024952
0.13318148626438131,-0.36679520952596567,-0.0013570577024024952
0.13323148626438133,-0.35709790886880777,-0.0013570577024024952
0.13328148626438133,-0.34706621853382236,-0.0013570577024024952
0.13333148626438132,-0.33670013852100439,-0.0013570577024024952
0.13338148626438132,-0.32700283786385204,-0.0013570577024024952
0.13343148626438131,-0.31663675785103412,-0.0013570577024024952
0.13348148626438133,-0.30660506751604311,-0.0013570577024024952
0.13353148626438133,-0.29657337718105797,-0.0013570577024024952
0.13358148626438132,-0.28654168684607284,-0.0013570577024024952
0.13363148626438132,-0.27684438618892043,-0.0013570577024024952
0.13368148626438131,-0.26647830617610235,-0.0013570577024024952
0.13373148626438133,-0.25678100551894445,-0.0013570577024024952
0.13378148626438133,-0.24674931518395926,-0.0013570577024024952
0.13383148626438132,-0.23671762484897391,-0.0013570577024024856
0.13388148626438132,-0.22635154483615591,-0.0010224310776326575
0.13393148626438131,-0.21631985450117072,-0.0010224310776326291
0.13398148626438133,-0.20628816416618015,-0.0013570577024024952
0.13403148626438133,-0.19692525318686036,-0.0013570577024024477
0.13408148626438132,-0.18655917317404236,-0.0010224310776326387
0.13413148626438132,-0.1765274828390572,-0.0013570577024024665
0.13418148626438131,-0.16649579250407201,-0.0013570577024024952
0.13423148626438133,-0.15646410216908116,-0.0010224310776327148
0.13428148626438133,-0.14643241183409597,-0.0013570577024024952
0.13433148626438132,-0.13640072149911078,-0.0013570577024024952
0.13438148626438132,-0.12636903116412562,-0.0013570577024024952
0.13443148626438131,-0.1163373408291403,-0.0013570577024024952
0.13448148626438133,-0.10664004017198252,-0.0013570577024024952
0.13453148626438133,-0.096942739514830095,-0.0013570577024024952
0.13458148626438132,-0.086576659502012085,-0.0013570577024024952
0.13463148626438132,-0.076210579489193922,-0.0013570577024024952
0.13468148626438131,-0.066513278832041542,-0.0013570577024024952
0.13473148626438133,-0.056481588497050962,-0.0013570577024024952
0.13478148626438133,-0.046784287839898471,-0.0013570577024024952
0.13483148626438132,-0.036083818149247493,-0.0013570577024024952
0.13488148626438132,-0.026052127814262326,-0.0013570577024024952
0.13493148626438131,-0.016354827157109966,-0.0013570577024024952
0.13498148626438133,-0.0063231368221192416,-0.0013570577024024952
0.13503148626438133,0.0033741638350330934,-0.0013570577024024429
0.13508148626438132,0.013071464492185471,-0.0010224310776326434
0.13513148626438132,0.023771934182836324,-0.0013570577024024713
0.13518148626438131,0.033803624517821693,-0.0010224310776326862
0.13523148626438133,0.043500925174979541,-0.0010224310776326291
0.13528148626438133,0.053532615509964715,-0.0010224310776326291
0.13533148626438132,0.063564305844949903,-0.0010224310776326291
0.13538148626438132,0.073595996179935216,-0.0010224310776326291
0.13543148626438131,0.083293296837087569,-0.0013570577024024381
0.13548148626438133,0.093324987172078336,-0.0010224310776326291
0.13553148626438133,0.1036910671848963,-0.0010224310776326291
0.13558148626438132,0.1137227575198816,-0.0010224310776326291
0.13563148626438132,0.12342005817703393,-0.0010224310776326291
0.13568148626438131,0.13311735883418627,-0.0013570577024024381
0.13573148626438131,0.14348343884700418,-0.0013570577024024952
0.13578148626438133,0.15351512918199514,-0.0013570577024024952
0.13583148626438132,0.1635468195169803,-0.0013570577024024761
0.13588148626438132,0.17324412017413263,-0.0010224310776326482
0.13593148626438131,0.1836102001869506,-0.0013570577024024381
0.13598148626438133,0.19364189052194145,-0.0010224310776326291
0.13603148626438133,0.20333919117909385,-0.0010224310776326291
0.13608148626438132,0.21337088151407901,-0.0010224310776326291
0.13613148626438132,0.22373696152689704,-0.0010224310776326291
0.13618148626438131,0.23376865186188239,-0.00068780445286281537
0.13623148626438131,0.24413473187470033,-0.00068780445286276311
0.13628148626438133,0.25383203253185821,-0.00068780445286276311
0.13633148626438132,0.26352933318901062,-0.00068780445286274413
0.13638148626438132,0.27389541320182875,-0.00035317782809291145
0.13643148626438131,0.2835927138589811,-1.8551203323083527e-05
0.13648148626438131,0.29395879387179913,0.00031607542144674916
0.13653148626438133,0.30365609452895698,0.00031607542144689184
0.13658148626438132,0.31368778486394228,0.00065070204621672453
0.13663148626438132,0.32371947519892741,0.0009853286709865525
0.13668148626438131,0.33375116553391276,0.0016545819205262035
0.13673148626438131,0.34378285586889795,0.0023238351700658592
0.13678148626438133,0.35381454620388869,0.0029930884196059482
0.13683148626438132,0.36418062621670672,0.003996968293915432
0.13688148626438132,0.37421231655169207,0.0050008481682249301
0.13693148626438131,0.38390961720884437,0.0060047280425344143
0.13698148626438131,0.3939413075438295,0.0073432345416136772
0.13703148626438133,0.40397299787882041,0.0090163676654636832
0.13708148626438132,0.41400468821380554,0.010689500789312852
0.13713148626438132,0.42370198887095789,0.012697260537931819
0.13718148626438131,0.43373367920594302,0.015039646911320604
0.13723148626438131,0.44409975921876099,0.017716659909479182
0.13728148626438133,0.45413144955375195,0.021062926157179192
0.13733148626438133,0.46416313988873714,0.024409192404877468
0.13738148626438132,0.47419483022372233,0.027755458652575751
0.13743148626438131,0.48389213088087463,0.031770978149813667
0.13748148626438131,0.49392382121585982,0.0357864976470516
0.13753148626438133,0.50395551155085061,0.040136643769061883
0.13758148626438133,0.51365281220800307,0.045156043140609309
0.13763148626438132,0.52401889222082099,0.05017544251215672
0.13768148626438131,0.53405058255580629,0.055529468508474032
0.13773148626438131,0.54408227289079159,0.061218121129561071
0.13778148626438133,0.55411396322578221,0.066906773750651433
0.13783148626438133,0.56381126388293457,0.073264679621278125
0.13788148626438132,0.57384295421791998,0.079287958867135119
0.13793148626438131,0.58387464455290505,0.08564586473776184
0.13798148626438131,0.59390633488789024,0.092003770608388574
0.13803148626438133,0.60360363554504814,0.098696303103788838
0.13808148626438133,0.61363532588003344,0.10572346222395536
0.13813148626438132,0.62366701621501863,0.11308524796889155
0.13818148626438131,0.63369870655000371,0.12011240708905795
0.13823148626438131,0.64373039688498901,0.12747419283399425
0.13828148626438133,0.65376208721997975,0.13450135195416471
0.13833148626438133,0.66379377755496505,0.14219776432387077
0.13838148626438132,0.67382546788995024,0.1498941766935768
0.13843148626438131,0.6835227685471027,0.15759058906328294
0.13848148626438131,0.69388884855992061,0.16528700143298899
0.13853148626438133,0.70392053889491135,0.17331804042746921
0.13858148626438133,0.7136178395520637,0.18101445279717529
0.13863148626438132,0.723649529887049,0.18904549179165125
0.13868148626438132,0.73334683054420136,0.19707653078612711
0.13873148626438131,0.74371291055701927,0.20544219640537278
0.13878148626438133,0.75341021121417739,0.21347323539985338
0.13883148626438133,0.76344190154916247,0.22183890101909901
0.13888148626438132,0.77347359188414766,0.22986994001357491
0.13893148626438132,0.78350528221913296,0.23857023225759039
0.13898148626438131,0.79353697255411804,0.24693589787683615
0.13903148626438133,0.80323427321127616,0.25530156349608663
0.13908148626438133,0.81326596354626124,0.2636672291153323
0.13913148626438132,0.82329765388124643,0.27203289473457803
0.13918148626438132,0.83332934421623162,0.28073318697859356
0.13923148626438131,0.84336103455121669,0.28943347922260904
0.13928148626438133,0.85339272488620765,0.29813377146662956
0.13933148626438133,0.86342441522119273,0.30683406371064509
0.13938148626438132,0.87345610555617803,0.31553435595466062
0.13943148626438132,0.88315340621333027,0.324569274823446
0.13948148626438131,0.89318509654831568,0.33293494044269195
0.13953148626438133,0.90321678688330642,0.34196985931148199
0.13958148626438133,0.9132484772182915,0.35067015155549752
0.13963148626438132,0.92328016755327669,0.35937044379951305
0.13968148626438132,0.9333118578882621,0.3687399892930685
0.13973148626438131,0.94300915854541456,0.37710565491231429
0.13978148626438133,0.95304084888040497,0.38614057378110433
0.13983148626438133,0.96273814953755732,0.39484086602511986
0.13988148626438132,0.97276983987254284,0.40387578489390547
0.13993148626438132,0.98280153020752792,0.41291070376269079
0.13998148626438131,0.46550069860017074,0.30951107670882361
0.14003148626438133,-0.99711975224093452,-0.00068780445286283922
0.14008148626438133,-0.98675367222811627,-0.0010224310776326291
0.14013148626438132,-0.97672198189313097,-0.0010224310776326387
0.14018148626438132,-0.9666902915581459,-0.0013570577024024665
0.14023148626438131,-0.95699299090099343,-0.0010224310776326957
0.14028148626438133,-0.94729569024383542,-0.0013570577024024952
0.14033148626438133,-0.93659522055318467,-0.0013570577024024477
0.14038148626438132,-0.92656353021819959,-0.0010224310776326291
0.14043148626438132,-0.91686622956104713,-0.0010224310776326291
0.14048148626438131,-0.90683453922606205,-0.0013570577024024286
0.14053148626438133,-0.8968028488910712,-0.0010224310776326291
0.14058148626438133,-0.88677115855608601,-0.0010224310776326766
0.14063148626438132,-0.87707385789893366,-0.0013570577024024856
0.14068148626438132,-0.86704216756394858,-0.0010224310776326575
0.14073148626438131,-0.85701047722896329,-0.0013570577024024286
0.14078148626438133,-0.84731317657180527,-0.0013570577024024952
0.14083148626438133,-0.83694709655898725,-0.0013570577024024952
0.14088148626438132,-0.82691540622400206,-0.0013570577024024952
0.14093148626438132,-0.81688371588901665,-0.0013570577024024952
0.14098148626438131,-0.80685202555403146,-0.0010224310776326862
0.14103148626438133,-0.79648594554120811,-0.0010224310776326291
0.14108148626438133,-0.78678864488405575,-0.0010224310776326291
0.14113148626438132,-0.77709134422690318,-0.0010224310776326291
0.14118148626438132,-0.76739404356975083,-0.0010224310776326291
0.14123148626438131,-0.7570279635569328,-0.0013570577024024381
0.14128148626438133,-0.74699627322194218,-0.0010224310776327148
0.14133148626438133,-0.73696458288695665,-0.0013570577024024952
0.14138148626438132,-0.72659850287413863,-0.0013570577024024952
0.14143148626438132,-0.71690120221698639,-0.0013570577024024952
0.14148148626438131,-0.7068695118820012,-0.0013570577024024952
0.14153148626438133,-0.69717221122484319,-0.0013570577024024952
0.14158148626438133,-0.68714052088985811,-0.0013570577024024952
0.14163148626438132,-0.67710883055487281,-0.0013570577024024952
0.14168148626438132,-0.66707714021988762,-0.0013570577024024952
0.14173148626438131,-0.65704544988490243,-0.0010224310776326862
0.14178148626438131,-0.64701375954991736,-0.0010224310776326291
0.14183148626438133,-0.63698206921492651,-0.0013570577024024381
0.14188148626438132,-0.62695037887994132,-0.0010224310776326291
0.14193148626438132,-0.61658429886712318,-0.0010224310776326291
0.14198148626438131,-0.60722138788780367,-0.0013570577024024381
0.14203148626438133,-0.59685530787497998,-0.0013570577024024952
0.14208148626438133,-0.5868236175399949,-0.0013570577024024381
0.14213148626438132,-0.57712631688284255,-0.0010224310776326482
0.14218148626438132,-0.56709462654785736,-0.0013570577024024761
0.14223148626438131,-0.55672854653503945,-0.0013570577024024952
0.14228148626438131,-0.54669685620005426,-0.0013570577024024952
0.14233148626438133,-0.53699955554289625,-0.0013570577024024952
0.14238148626438132,-0.52696786520791106,-0.0013570577024024952
0.14243148626438132,-0.5172705645507587,-0.0013570577024024952
0.14248148626438131,-0.50723887421577352,-0.0013570577024024952
0.14253148626438131,-0.4968727942029556,-0.0013570577024024952
0.14258148626438133,-0.48650671419013175,-0.0013570577024024952
0.14263148626438132,-0.47647502385514662,-0.0013570577024024952
0.14268148626438132,-0.46677772319799427,-0.0013570577024024952
0.14273148626438131,-0.45674603286300913,-0.0010224310776326862
0.14278148626438131,-0.44637995285019116,-0.0013570577024024002
0.14283148626438133,-0.43668265219303309,-0.0010224310776326862
0.14288148626438132,-0.42665096185804791,-0.0013570577024024952
0.14293148626438132,-0.41661927152306272,-0.0013570577024024952
0.14298148626438131,-0.40692197086591009,-0.0013570577024024952
0.14303148626438131,-0.39689028053092495,-0.0013570577024024952
0.14308148626438133,-0.38685859019593438,-0.0013570577024024952
0.14313148626438132,-0.37682689986094925,-0.0013570577024024952
0.14318148626438132,-0.36679520952596373,-0.0013570577024024952
0.14323148626438131,-0.35642912951314576,-0.0013570577024024952
0.14328148626438131,-0.34673182885599335,-0.0013570577024024952
0.14333148626438133,-0.33703452819883567,-0.0013570577024024952
0.14338148626438132,-0.3270028378638502,-0.0013570577024024952
0.14343148626438132,-0.31663675785103218,-0.0013570577024024952
0.14348148626438131,-0.30660506751604699,-0.0013570577024024952
0.14353148626438131,-0.2965733771810618,-0.0013570577024024952
0.14358148626438133,-0.28687607652390384,-0.0013570577024024952
0.14363148626438133,-0.2768443861889186,-0.0013570577024024952
0.14368148626438132,-0.26647830617610058,-0.0013570577024024952
0.14373148626438131,-0.25678100551894828,-0.0013570577024024952
0.14378148626438131,-0.24674931518396281,-0.0010224310776327052
0.14383148626438133,-0.23705201452680505,-0.0013570577024024286
0.14388148626438133,-0.22668593451398705,-0.0010224310776326578
0.14393148626438132,-0.21665424417900186,-0.0013570577024024856
0.14398148626438131,-0.20662255384401643,-0.0013570577024024952
0.14403148626438131,-0.19659086350903124,-0.0013570577024024952
0.14408148626438133,-0.18655917317404069,-0.0013570577024024952
0.14413148626438133,-0.17686187251688804,-0.0013570577024024952
0.14418148626438132,-0.16649579250407001,-0.0013570577024024952
0.14423148626438131,-0.15646410216908485,-0.0013570577024024952
0.14428148626438131,-0.14643241183409966,-0.0013570577024024952
0.14433148626438133,-0.13673511117694159,-0.0013570577024024952
0.14438148626438133,-0.12636903116412362,-0.0013570577024024952
0.14443148626438132,-0.11633734082913844,-0.0013570577024024952
0.14448148626438131,-0.10664004017198611,-0.0013570577024024952
0.14453148626438131,-0.096608349837000965,-0.0013570577024024952
0.14458148626438133,-0.086911049179842978,-0.0013570577024024952
0.14463148626438133,-0.076879358844857762,-0.0013570577024024952
0.14468148626438132,-0.066513278832039752,-0.0013570577024024952
0.14473148626438131,-0.056481588497054577,-0.0013570577024024952
0.14478148626438131,-0.046449898162069396,-0.0013570577024024952
0.14483148626438133,-0.036418207827078518,-0.0013570577024024952
0.14488148626438133,-0.026386517492093347,-0.0013570577024024952
0.14493148626438132,-0.016354827157108176,-0.0013570577024024952
0.14498148626438132,-0.006657526499955841,-0.0013570577024024952
0.14503148626438131,0.0030397741571964966,-0.0013570577024024952
0.14508148626438133,0.013071464492187296,-0.0013570577024024952
0.14513148626438133,0.023103154827172508,-0.0013570577024024952
0.14518148626438132,0.033469234839990522,-0.0013570577024024952
0.14523148626438132,0.043166535497142854,-0.0013570577024024952
