Lab 6/Ramp Voltage Data 2.csv

#Digilent WaveForms Oscilloscope Acquisition
#Device Name: Discovery2NI
#Serial Number: SN:210321A291F6
#Date Time: 2018-03-06 23:01:57.395
#Sample rate: 20000Hz
#Samples: 256
#Trigger: Source: Channel 1 Type: Edge Condition: Either Level: 0 V Hyst.: Auto HoldOff: 0 s
#Channel 1: Range: 500 mV/div Offset: 0 V
#Channel 2: Range: 500 mV/div Offset: 0 V

Time (s),Channel 1 (V),Channel 2 (V)
0.13245500138542535,-0.51426105745026007,-0.51467430009937476
0.13250500138542534,-0.50456375679310772,-0.50497012798104968
0.13255500138542534,-0.49453206645812253,-0.4949313292379548
0.13260500138542533,-0.48416598644530451,-0.48455790387009012
0.13265500138542533,-0.47413429611031932,-0.47451910512699524
0.13270500138542535,-0.46443699545316131,-0.46481493300866455
0.13275500138542534,-0.45440530511817612,-0.45477613426556973
0.13280500138542534,-0.44437361478319098,-0.44473733552247491
0.13285500138542533,-0.4343419244482058,-0.43469853677938008
0.13290500138542533,-0.42397584443538766,-0.42465973803628509
0.13295500138542535,-0.41394415410039687,-0.41462093929318466
0.13300500138542534,-0.40391246376541179,-0.40458214055008984
0.13305500138542534,-0.39454955278609211,-0.3948779684317647
0.13310500138542533,-0.38451786245110697,-0.38450454306390008
0.13315500138542533,-0.374151782438289,-0.37446574432080521
0.13320500138542535,-0.36412009210329821,-0.36442694557770483
0.13325500138542534,-0.35442279144614569,-0.35472277345937969
0.13330500138542534,-0.34405671143332772,-0.34468397471628481
0.13335500138542533,-0.33435941077617531,-0.33464517597318999
0.13340500138542533,-0.32432772044119024,-0.32460637723009517
0.13345500138542535,-0.31396164042836655,-0.31456757848699468
0.13350500138542534,-0.30426433977121409,-0.3048634063686696
0.13355500138542534,-0.29389825975839606,-0.29448998100080492
0.13360500138542533,-0.28386656942341093,-0.2844511822577101
0.13365500138542533,-0.27416926876625841,-0.27441238351461511
0.13370500138542535,-0.26413757843126773,-0.26470821139628459
0.13375500138542534,-0.25410588809628259,-0.25466941265318976
0.13380500138542534,-0.24407419776129724,-0.24463061391009477
0.13385500138542533,-0.23404250742631205,-0.23459181516699992
0.13390500138542533,-0.22401081709132689,-0.22455301642390507
0.13395500138542535,-0.21397912675633615,-0.21451421768080473
0.13400500138542534,-0.2039474364213508,-0.20447541893770974
0.13405500138542534,-0.1935813564085328,-0.19443662019461488
0.13410500138542533,-0.18354966607354761,-0.18439782145152003
0.13415500138542533,-0.17385236541639526,-0.17469364933319503
0.13420500138542535,-0.16382067508140444,-0.16432022396532478
0.13425500138542534,-0.15378898474641928,-0.15461605184699964
0.13430500138542534,-0.14375729441143409,-0.14424262647913499
0.13435500138542533,-0.13372560407644893,-0.13420382773604014
0.13440500138542533,-0.1236939137414636,-0.12416502899294517
0.13445500138542535,-0.11399661308430566,-0.11446085687461463
0.13450500138542534,-0.10363053307148769,-0.10442205813151974
0.13455500138542534,-0.093598842736502499,-0.094048632763655077
0.13460500138542533,-0.083567152401517186,-0.084009834020560101
0.13465500138542533,-0.073869851744364834,-0.073971035277465277
0.13470500138542535,-0.063503771731541286,-0.063932236534364945
0.13475500138542534,-0.053472081396556119,-0.054228064416039848
0.13480500138542534,-0.043440391061570799,-0.043854639048175055
0.13485500138542533,-0.033408700726585631,-0.034150466929850049
0.13490500138542533,-0.023377010391600447,-0.023777041561985429
0.13495500138542535,-0.013345320056609662,-0.014072869443654783
0.13500500138542534,-0.0036480193994573268,-0.0043686973253297201
0.13505500138542534,0.0060492812576950373,0.0056701014177651327
0.13510500138542533,0.016415361270513053,0.016043526785629796
0.13515500138542533,0.026112661927665572,0.026082325528724803
0.13520500138542535,0.036144352262656339,0.035451871022285565
0.13525500138542534,0.046510432275474245,0.045825296390150178
0.13530500138542534,0.056207732932626611,0.055864095133245029
0.13535500138542533,0.066573812945444788,0.066237520501109842
0.13540500138542533,0.076605503280429976,0.075941692619434897
0.13545500138542535,0.086637193615420702,0.08598049136253523
0.13550500138542534,0.096668883950405876,0.096019290105630067
0.13555500138542534,0.10670057428539118,0.10605808884872504
0.13560500138542533,0.1163978749425435,0.11576226096705004
0.13565500138542533,0.12642956527752866,0.12580105971014488
0.13570500138542535,0.13646125561251954,0.13583985845324528
0.13575500138542534,0.14649294594750473,0.14554403057157039
0.13580500138542534,0.15652463628248992,0.15558282931466524
0.13585500138542533,0.16655632661747505,0.16595625468252992
0.13590500138542533,0.17658801695246024,0.17599505342562477
0.13595500138542532,0.18628531760961278,0.18569922554394996
0.13600500138542534,0.1966513976224363,0.19573802428705028
0.13605500138542534,0.20668308795742149,0.20577682303014513
0.13610500138542533,0.21671477829240662,0.21581562177323996
0.13615500138542533,0.22674646862739195,0.2255197938915651
0.13620500138542532,0.23677815896237711,0.23555859263465989
0.13625500138542535,0.24680984929736782,0.24559739137776027
0.13630500138542534,0.25650714995452012,0.25530156349608529
0.13635500138542533,0.26653884028950542,0.26534036223918028
0.13640500138542533,0.27690492030232344,0.27537916098227511
0.13645500138542532,0.28693661063730885,0.2854179597253701
0.13650500138542535,0.29696830097229943,0.2947875052189306
0.13655500138542534,0.30699999130728467,0.30482630396202554
0.13660500138542533,0.31669729196443708,0.31419584945558077
0.13665500138542533,0.32706337197725516,0.32423464819867565
0.13670500138542532,0.33676067263440757,0.33360419369223099
0.13675500138542535,0.34679236296939825,0.34297373918579133
0.13680500138542534,0.35682405330438344,0.3523432846793465
0.13685500138542533,0.36685574363936874,0.36171283017290184
0.13690500138542533,0.37688743397435392,0.37074774904168722
0.13695500138542532,0.38691912430933911,0.37944804128570275
0.13700500138542535,0.39695081464432996,0.38848296015449302
0.13705500138542534,0.4069825049793151,0.39684862577373869
0.13710500138542533,0.41701419531430034,0.40487966476821458
0.13715500138542533,0.42671149597145264,0.4129107037626904
0.13720500138542532,0.43674318630643783,0.42060711613239654
0.13725500138542535,0.44677487664142873,0.42796890187733699
0.13730500138542534,0.4571409566542467,0.43533068762227317
0.13735500138542533,0.466838257311399,0.44202322011766976
0.13740500138542533,0.47686994764638418,0.44838112598829649
0.13745500138542532,0.48690163798136937,0.45507365848369297
0.13750500138542535,0.49693332831636017,0.4607623111047835
0.13755500138542534,0.50663062897351263,0.46611633710110073
0.13760500138542534,0.51666231930849771,0.47147036309741797
0.13765500138542533,0.52635961996565028,0.47615513584419566
0.13770500138542532,0.53639131030063536,0.48083990859097325
0.13775500138542535,0.54642300063562621,0.48519005471298354
0.13780500138542534,0.55678908064844423,0.48954020083499128
0.13785500138542534,0.56682077098342953,0.49389034695699913
0.13790500138542533,0.57651807164058189,0.49757123982946722
0.13795500138542532,0.58688415165339969,0.50158675932670505
0.13800500138542535,0.59691584198839043,0.50493302557440534
0.13805500138542534,0.606613142645543,0.50794466519733383
0.13810500138542534,0.61664483298052819,0.51129093144503224
0.13815500138542533,0.62667652331551327,0.51430257106796062
0.13820500138542532,0.63670821365049857,0.51731421069088912
0.13825500138542535,0.64673990398548942,0.51999122368904926
0.13830500138542534,0.65677159432047461,0.52266823668720785
0.13835500138542534,0.66680328465545979,0.52501062306059665
0.13840500138542533,0.67683497499044509,0.52735300943398555
0.13845500138542532,0.68653227564759745,0.52969539580737424
0.13850500138542535,0.69656396598258807,0.53203778218076436
0.13855500138542534,0.70659565631757326,0.53438016855415316
0.13860500138542534,0.71662734665255856,0.53638792830277215
0.13865500138542533,0.72665903698754375,0.53839568805139115
0.13870500138542532,0.73669072732252894,0.54040344780001004
0.13875500138542535,0.7467224176575199,0.54241120754863004
0.13880500138542534,0.75675410799250498,0.54408434067247924
0.13885500138542534,0.76645140864965733,0.54575747379632844
0.13890500138542533,0.77681748866247524,0.54743060692017753
0.13895500138542533,0.78651478931962771,0.54910374004402673
0.13900500138542535,0.79654647965461856,0.55077687316787671
0.13905500138542534,0.80657816998960363,0.55245000629172591
0.13910500138542534,0.81627547064675599,0.55412313941557501
0.13915500138542533,0.82664155065957401,0.5557962725394241
0.13920500138542533,0.8366732409945592,0.5571347790385035
0.13925500138542535,0.84670493132955005,0.55847328553758357
0.13930500138542534,0.85640223198670251,0.56014641866143278
0.13935500138542534,0.86676831199952042,0.56148492516051207
0.13940500138542533,0.87646561265667278,0.56282343165959148
0.13945500138542533,0.88649730299165819,0.56382731153390098
0.13950500138542535,0.89619460364881598,0.56516581803298094
0.13955500138542534,0.90622629398380106,0.56650432453206023
0.13960500138542534,0.91625798431878624,0.56750820440636962
0.13965500138542533,0.92595528497593893,0.56851208428067912
0.13970500138542533,0.93565258563309128,0.56985059077975853
0.13975500138542535,0.9456842759680818,0.57085447065406858
0.13980500138542534,0.95605035598089971,0.57185835052837808
0.13985500138542534,0.9657476566380524,0.57319685702745737
0.13990500138542533,0.97577934697303748,0.57420073690176687
0.13995500138542533,0.98581103730802266,0.57520461677607637
0.14000500138542535,-0.2688190339210953,-0.42064421853917483
0.14005500138542534,-0.99377585546260672,-0.99352500014505374
0.14010500138542534,-0.98407855480545448,-0.98415545465149867
0.14015500138542533,-0.97438125414830201,-0.97445128253317348
0.14020500138542533,-0.96468395349114966,-0.96474711041484851
0.14025500138542535,-0.95465226315615881,-0.95470831167174808
0.14030500138542534,-0.94428618314334078,-0.9446695129286532
0.14035500138542534,-0.93392010313052287,-0.93429608756078864
0.14040500138542533,-0.92422280247337041,-0.92459191544246344
0.14045500138542533,-0.91419111213838533,-0.91421849007459899
0.14050500138542535,-0.90415942180339448,-0.90451431795626813
0.14055500138542534,-0.8941277314684094,-0.89414089258840357
0.14060500138542534,-0.88443043081125694,-0.88443672047007849
0.14065500138542533,-0.87439874047627186,-0.87439792172698372
0.14070500138542533,-0.86436705014128667,-0.86469374960865863
0.14075500138542535,-0.85433535980629571,-0.85432032424078841
0.14080500138542534,-0.84430366947131053,-0.84461615212246333
0.14085500138542534,-0.83427197913632545,-0.83457735337936845
0.14090500138542533,-0.82457467847917276,-0.82453855463627335
0.14095500138542533,-0.81454298814418757,-0.81449975589317847
0.14100500138542535,-0.80451129780919706,-0.80479558377484817
0.14105500138542534,-0.79447960747421187,-0.79475678503175329
0.14110500138542534,-0.78444791713922646,-0.78471798628865819
0.14115500138542533,-0.77475061648207411,-0.77501381417033322
0.14120500138542533,-0.76438453646925608,-0.76464038880246854
0.14125500138542535,-0.75435284613426534,-0.75460159005936811
0.14130500138542534,-0.74398676612144732,-0.74422816469150344
0.14135500138542534,-0.73462385514212769,-0.73485861919794815
0.14140500138542533,-0.7245921648071425,-0.72481982045485327
0.14145500138542533,-0.71489486414999015,-0.7151156483365283
0.14150500138542535,-0.70486317381499919,-0.70507684959342765
0.14155500138542534,-0.69449709380218128,-0.69470342422556297
0.14160500138542534,-0.68413101378936325,-0.68432999885769841
0.14165500138542533,-0.6744337131322109,-0.67496045336414323
0.14170500138542533,-0.66440202279722571,-0.66492165462104835
0.14175500138542535,-0.65403594278440214,-0.65454822925317802
0.14180500138542534,-0.64433864212724978,-0.64450943051008325
0.14185500138542534,-0.63464134147009743,-0.63447063176698837
0.14190500138542533,-0.62460965113511224,-0.6247664596486634
0.14195500138542533,-0.61424357112229433,-0.61472766090556852
0.14200500138542532,-0.60454627046514187,-0.60502348878724344
0.14205500138542534,-0.59451458013015113,-0.59498469004414301
0.14210500138542534,-0.58448288979516594,-0.58494589130104824
0.14215500138542533,-0.57445119946018064,-0.57457246593318345
0.14220500138542533,-0.56441950912519545,-0.56453366719008857
0.14225500138542532,-0.55405342911237765,-0.55416024182222412
0.14230500138542534,-0.54402173877738669,-0.54445606970389326
0.14235500138542534,-0.53432443812023434,-0.53475189758556829
0.14240500138542533,-0.5239583581074162,-0.52437847221770351
0.14245500138542533,-0.51459544712809668,-0.51500892672414833
0.14250500138542532,-0.50456375679311172,-0.50497012798105367
0.14255500138542535,-0.49453206645812081,-0.49459670261318323
0.14260500138542534,-0.48450037612313568,-0.4845579038700884
0.14265500138542533,-0.47446868578815049,-0.47485373175176337
0.14270500138542533,-0.4644369954531653,-0.46481493300866855
0.14275500138542532,-0.45407091544034733,-0.45444150764080393
0.14280500138542535,-0.44437361478318926,-0.44440270889770339
0.14285500138542534,-0.43434192444820402,-0.43469853677937836
0.14290500138542533,-0.42397584443538605,-0.42465973803628349
0.14295500138542533,-0.41427854377823342,-0.41495556591795824
0.14300500138542532,-0.40424685344324823,-0.40458214055009362
0.14305500138542535,-0.39454955278609044,-0.3945433418069933
0.14310500138542534,-0.38384908309543964,-0.38450454306389847
0.14315500138542533,-0.3744861721161199,-0.37480037094557317
0.14320500138542533,-0.36445448178113476,-0.36476157220247835
0.14325500138542532,-0.35442279144614958,-0.35472277345938352
0.14330500138542535,-0.34439110111115889,-0.34468397471628326
0.14335500138542534,-0.33402502109834065,-0.3346451759731881
0.14340500138542533,-0.32399333076335546,-0.32427175060532343
0.14345500138542533,-0.31362725075053749,-0.3142329518622286
0.14350500138542532,-0.30392995009338508,-0.30452877974390358
0.14355500138542535,-0.29389825975839423,-0.29415535437603324
0.14360500138542534,-0.2838665694234091,-0.28445118225770821
0.14365500138542533,-0.27383487908842391,-0.27407775688984354
0.14370500138542533,-0.26413757843127156,-0.26470821139628836
0.14375500138542532,-0.25377149841845331,-0.25433478602842352
0.14380500138542535,-0.24407419776129552,-0.24463061391009305
0.14385500138542534,-0.23404250742631033,-0.23459181516699817
0.14390500138542534,-0.22401081709132517,-0.22421838979913353
0.14395500138542533,-0.21364473707850687,-0.21417959105603837
0.14400500138542532,-0.20394743642135446,-0.20447541893771337
0.14405500138542535,-0.19391574608636394,-0.19443662019461316
0.14410500138542534,-0.18388405575137848,-0.18439782145151803
0.14415500138542534,-0.17385236541639332,-0.17435902270842318
0.14420500138542533,-0.16382067508140813,-0.16432022396532839
0.14425500138542532,-0.15378898474642297,-0.15428142522223354
0.14430500138542535,-0.14375729441143209,-0.144242626479133
0.14435500138542534,-0.13372560407644693,-0.13420382773603814
0.14440500138542534,-0.12369391374146174,-0.12416502899294331
0.14445500138542533,-0.11366222340647657,-0.11412623024984847
0.14450500138542532,-0.10363053307149139,-0.10375280488198384
0.14455500138542535,-0.093598842736500584,-0.094048632763653092
0.14460500138542534,-0.083901542079348218,-0.084009834020558297
0.14465500138542534,-0.073869851744363044,-0.074305661902233283
0.14470500138542533,-0.063503771731545033,-0.063932236534368608
0.14475500138542532,-0.053806471074392626,-0.054228064416043525
0.14480500138542535,-0.043440391061568946,-0.043854639048173188
0.14485500138542534,-0.033408700726583779,-0.033815840305078393
0.14490500138542534,-0.023377010391598594,-0.024111668186753383
0.14495500138542533,-0.01334532005661342,-0.014072869443658544
0.14500500138542533,-0.0039824090772938477,-0.0043686973253334958
0.14505500138542535,0.0063836709355297536,0.0060047280425368395
0.14510500138542534,0.01641536127051493,0.016043526785631677
0.14515500138542534,0.026447051605500101,0.026082325528726514
0.14520500138542533,0.036144352262652439,0.036121124271821348
