Lab 6/Ramp Voltage Data.csv

#Digilent WaveForms Oscilloscope Acquisition
#Device Name: Discovery2NI
#Serial Number: SN:210321A291F6
#Date Time: 2018-03-06 21:39:51.663
#Sample rate: 20000Hz
#Samples: 256
#Trigger: Source: Channel 1 Type: Edge Condition: Either Level: 0 V Hyst.: Auto HoldOff: 0 s
#Channel 1: Range: 500 mV/div Offset: 0 V
#Channel 2: Range: 500 mV/div Offset: 0 V

Time (s),Channel 1 (V),Channel 2 (V)
-0.006386179675339115,-0.28186023135641264,-0.00068780445286276311
-0.0063361796753391144,-0.27216293069925923,-0.0010224310776326291
-0.0062861796753391147,-0.26213124036427293,-0.0010224310776326291
-0.006236179675339115,-0.25209955002928658,-0.0010224310776326291
-0.0061861796753391145,-0.24206785969430025,-0.0010224310776326291
-0.0061361796753391148,-0.23203616935931395,-0.0010224310776326291
-0.0060861796753391151,-0.22200447902432777,-0.0010224310776326291
-0.0060361796753391145,-0.2119727886893413,-0.0010224310776326291
-0.0059861796753391148,-0.20160670867652211,-0.0010224310776326291
-0.0059361796753391151,-0.19190940801936882,-0.0010224310776326291
-0.0058861796753391146,-0.18221210736221524,-0.0010224310776326291
-0.0058361796753391149,-0.17218041702722892,-0.0010224310776326291
-0.0057861796753391143,-0.16214872669224248,-0.0010224310776326291
-0.0057361796753391146,-0.15211703635725629,-0.0010224310776326291
-0.0056861796753391149,-0.14208534602226999,-0.0010224310776326291
-0.0056361796753391143,-0.13205365568728353,-0.0010224310776326291
-0.0055861796753391146,-0.12168757567446448,-0.0010224310776326291
-0.0055361796753391149,-0.11165588533947816,-0.0010224310776326291
-0.0054861796753391144,-0.10162419500449185,-0.0010224310776326291
-0.0054361796753391147,-0.091926894347338403,-0.0010224310776326291
-0.005386179675339115,-0.081895204012352091,-0.0013570577024024952
-0.0053361796753391144,-0.071863513677365778,-0.0010224310776326291
-0.0052861796753391147,-0.061831823342379466,-0.0010224310776326291
-0.005236179675339115,-0.051800133007393154,-0.0010224310776326291
-0.0051861796753391145,-0.041434052994573964,-0.0013570577024024952
-0.0051361796753391148,-0.031736752337420529,-0.0013570577024024952
-0.0050861796753391151,-0.021370672324601478,-0.0013570577024024952
-0.0050361796753391145,-0.011673371667447894,-0.0013570577024024952
-0.0049861796753391148,-0.0019760710102944569,-0.0013570577024024952
-0.0049361796753391151,0.0080556193246917162,-0.0013570577024024952
-0.0048861796753391145,0.01842169933751105,-0.0013570577024024952
-0.0048361796753391148,0.028787779350330243,-0.0010224310776326291
-0.0047861796753391143,0.038150690329650953,-0.0010224310776326291
-0.0047361796753391146,0.04818238066463712,-0.0010224310776326291
-0.0046861796753391149,0.058214070999623432,-0.0010224310776326291
-0.0046361796753391143,0.068580151012442761,-0.0010224310776326291
-0.0045861796753391146,0.078277451669596071,-0.0010224310776326291
-0.0045361796753391149,0.088643531682415261,-0.0010224310776326291
-0.0044861796753391144,0.098340832339568696,-0.0013570577024024952
-0.0044361796753391147,0.10870691235238789,-0.0010224310776326291
-0.004386179675339115,0.11840421300954132,-0.0010224310776326291
-0.0043361796753391144,0.12877029302236051,-0.0010224310776326291
-0.0042861796753391147,0.13880198335734684,-0.0010224310776326291
-0.004236179675339115,0.14883367369233313,-0.0010224310776326291
-0.0041861796753391144,0.15886536402731946,-0.0010224310776326291
-0.0041361796753391147,0.1685626646844729,-0.0010224310776326291
-0.004086179675339115,0.17859435501945922,-0.0010224310776326291
-0.0040361796753391145,0.18862604535444552,-0.0010224310776326291
-0.0039861796753391148,0.19865773568943185,-0.0010224310776326291
-0.0039361796753391151,0.20835503634658514,-0.0010224310776326291
-0.0038861796753391149,0.21838672668157161,-0.0010224310776326291
-0.0038361796753391153,0.2287528066943908,-0.0010224310776326291
-0.0037861796753391151,0.2387844970293771,-0.0010224310776326291
-0.003736179675339115,0.24848179768653053,-0.0013570577024024952
-0.0036861796753391153,0.2585134880215168,-0.0013570577024024952
-0.0036361796753391152,0.26854517835650316,-0.0010224310776326291
-0.003586179675339115,0.27891125836932235,-0.0010224310776326291
-0.0035361796753391153,0.28894294870430864,-0.0010224310776326291
-0.0034861796753391152,0.29897463903929494,-0.0010224310776326291
-0.0034361796753391151,0.30867193969644841,-0.0010224310776326291
-0.0033861796753391149,0.3187036300314347,-0.0013570577024024952
-0.0033361796753391152,0.32873532036642106,-0.0013570577024024952
-0.0032861796753391151,0.33876701070140736,-0.0013570577024024952
-0.003236179675339115,0.34879870103639365,-0.0013570577024024952
-0.0031861796753391153,0.35883039137137995,-0.0010224310776326291
-0.0031361796753391151,0.36919647138419914,-0.0010224310776326291
-0.003086179675339115,0.37889377204135261,-0.0010224310776326291
-0.0030361796753391153,0.3889254623763389,-0.0010224310776326291
-0.0029861796753391152,0.39895715271132526,-0.00068780445286276311
-0.0029361796753391151,0.40898884304631156,-0.0010224310776326291
-0.0028861796753391149,0.41902053338129785,-0.0010224310776326291
-0.0028361796753391152,0.42905222371628415,-0.0010224310776326291
-0.0027861796753391151,0.43908391405127051,-0.0010224310776326291
-0.002736179675339115,0.4494499940640897,-0.0010224310776326291
-0.0026861796753391153,0.4591472947212431,-0.00068780445286276311
-0.0026361796753391151,0.46917898505622946,-0.0010224310776326291
-0.002586179675339115,0.47921067539121576,-0.0010224310776326291
-0.0025361796753391153,0.48890797604836922,-0.0010224310776326291
-0.0024861796753391152,0.49893966638335552,-0.0010224310776326291
-0.002436179675339115,0.50930574639617476,-0.0010224310776326291
-0.0023861796753391149,0.51933743673116106,-0.0010224310776326291
-0.0023361796753391152,0.52903473738831452,-0.0010224310776326291
-0.0022861796753391151,0.53940081740113366,-0.0013570577024024952
-0.002236179675339115,0.54909811805828712,-0.0010224310776326291
-0.0021861796753391153,0.55912980839327342,-0.0013570577024024952
-0.0021361796753391151,0.56882710905042688,-0.0010224310776326291
-0.002086179675339115,0.57885879938541318,-0.0010224310776326291
-0.0020361796753391153,0.58922487939823243,-0.0010224310776326291
-0.0019861796753391152,0.59892218005538589,-0.0010224310776326291
-0.0019361796753391148,0.60895387039037219,-0.0013570577024024952
-0.0018861796753391149,0.61898556072535849,-0.0010224310776326291
-0.001836179675339115,0.62868286138251195,-0.0010224310776326291
-0.0017861796753391149,0.63904894139533108,-0.0010224310776326291
-0.0017361796753391149,0.64874624205248455,-0.0010224310776326291
-0.0016861796753391148,0.65877793238747084,-0.0010224310776326291
-0.0016361796753391149,0.66880962272245714,-0.0010224310776326291
-0.001586179675339115,0.67884131305744344,-0.0013570577024024952
-0.0015361796753391149,0.68887300339242974,-0.0013570577024024952
-0.0014861796753391149,0.6985703040495832,-0.0010224310776326291
-0.0014361796753391148,0.70893638406240245,-0.0010224310776326291
-0.0013861796753391149,0.71896807439738875,-0.0010224310776326291
-0.001336179675339115,0.72899976473237504,-0.0010224310776326291
-0.0012861796753391149,0.73903145506736134,-0.0010224310776326291
-0.0012361796753391149,0.74906314540234764,-0.0010224310776326291
-0.0011861796753391148,0.75909483573733394,-0.0010224310776326291
-0.0011361796753391149,0.76845774671665457,-0.0010224310776326291
-0.001086179675339115,0.77848943705164086,-0.0010224310776326291
-0.0010361796753391148,0.78885551706446011,-0.0010224310776326291
-0.00098617967533911493,0.79888720739944641,-0.0010224310776326291
-0.00093617967533911502,0.80891889773443271,-0.0013570577024024952
-0.00088617967533911499,0.81861619839158617,-0.0010224310776326291
-0.00083617967533911497,0.82864788872657247,-0.0010224310776326291
-0.00078617967533911506,0.83867957906155877,-0.0010224310776326291
-0.00073617967533911503,0.84871126939654506,-0.0010224310776326291
-0.00068617967533911501,0.85840857005369853,-0.0010224310776326291
-0.00063617967533911499,0.86844026038868483,-0.0010224310776326291
-0.00058617967533911497,0.87880634040150407,-0.0010224310776326291
-0.00053617967533911505,0.88883803073649037,-0.0010224310776326291
-0.00048617967533911497,0.89853533139364372,-0.0010224310776326291
-0.00043617967533911495,0.90856702172863013,-0.0010224310776326291
-0.00038617967533911498,0.91859871206361643,-0.0010224310776326291
-0.00033617967533911496,0.92863040239860273,-0.0010224310776326291
-0.00028617967533911494,0.93832770305575619,-0.0010224310776326291
-0.00023617967533911497,0.94869378306857532,-0.0010224310776326291
-0.00018617967533911497,0.95839108372572879,-0.0010224310776326291
-0.00013617967533911495,0.96842277406071509,-0.0010224310776326291
-8.6179675339114969e-05,0.97845446439570138,-0.0010224310776326291
-3.6179675339114967e-05,0.98815176505285485,-0.0010224310776326291
1.3820324660885034e-05,-0.51559861616159375,-0.022438535062904053
6.3820324660885031e-05,-0.99243829675127659,-0.011061229820728609
0.00011382032466088504,-0.9824066064162903,-0.004034070700561423
0.00016382032466088502,-0.97270930575913683,-0.0020263109519422272
0.00021382032466088505,-0.96267761542415053,-0.0013570577024024952
0.00026382032466088504,-0.95231153541133129,-0.0010224310776326291
0.00031382032466088501,-0.94261423475417783,-0.0010224310776326291
0.00036382032466088503,-0.93258254441919153,-0.0010224310776326291
0.00041382032466088505,-0.92255085408420523,-0.0010224310776326291
0.00046382032466088502,-0.9121847740713861,-0.0010224310776326291
0.00051382032466088499,-0.90248747341423263,-0.0010224310776326291
0.00056382032466088501,-0.89245578307924633,-0.0010224310776326291
0.00061382032466088493,-0.88275848242209287,-0.0010224310776326291
0.00066382032466088495,-0.87239240240927363,-0.0010224310776326291
0.00071382032466088497,-0.86236071207428733,-0.0010224310776326291
0.000763820324660885,-0.85199463206146819,-0.0010224310776326291
0.00081382032466088502,-0.84263172108214757,-0.0010224310776326291
0.00086382032466088493,-0.83260003074716127,-0.0010224310776326291
0.00091382032466088496,-0.82256834041217497,-0.0010224310776326291
0.00096382032466088498,-0.81253665007718867,-0.0010224310776326291
0.0010138203246608851,-0.80250495974220237,-0.0010224310776326291
0.001063820324660885,-0.79247326940721607,-0.0010224310776326291
0.0011138203246608852,-0.78244157907222978,-0.0010224310776326291
0.0011638203246608851,-0.77207549905941053,-0.0013570577024024952
0.001213820324660885,-0.76237819840225707,-0.0013570577024024952
0.0012638203246608851,-0.75234650806727077,-0.0013570577024024952
0.001313820324660885,-0.74231481773228447,-0.0010224310776326291
0.0013638203246608852,-0.73228312739729817,-0.0010224310776326291
0.0014138203246608851,-0.72258582674014471,-0.0010224310776326291
0.001463820324660885,-0.71255413640515841,-0.0010224310776326291
0.0015138203246608851,-0.70252244607017211,-0.0010224310776326291
0.001563820324660885,-0.69249075573518581,-0.0010224310776326291
0.0016138203246608852,-0.68212467572236657,-0.0010224310776326291
0.0016638203246608851,-0.67242737506521311,-0.0013570577024024952
0.001713820324660885,-0.66273007440805964,-0.0010224310776326291
0.0017638203246608851,-0.65269838407307335,-0.0010224310776326291
0.001813820324660885,-0.64266669373808705,-0.0010224310776326291
0.0018638203246608852,-0.63230061372526791,-0.0010224310776326291
0.0019138203246608851,-0.62260331306811445,-0.0010224310776326291
0.0019638203246608848,-0.6122372330552952,-0.0010224310776326291
0.0020138203246608849,-0.60220554272030891,-0.0010224310776326291
0.002063820324660885,-0.59217385238532261,-0.0010224310776326291
0.0021138203246608847,-0.58281094140600209,-0.0010224310776326291
0.0021638203246608849,-0.57244486139318285,-0.0010224310776326291
0.002213820324660885,-0.56274756073602938,-0.0010224310776326291
0.0022638203246608847,-0.55238148072321025,-0.0010224310776326291
0.0023138203246608848,-0.54268418006605679,-0.0010224310776326291
0.002363820324660885,-0.53265248973107049,-0.0010224310776326291
0.0024138203246608847,-0.52262079939608419,-0.0010224310776326291
0.0024638203246608848,-0.51225471938326494,-0.0010224310776326291
0.0025138203246608849,-0.50222302904827865,-0.0010224310776326291
0.0025638203246608851,-0.49185694903545951,-0.00068780445286276311
0.0026138203246608848,-0.4821596483783061,-0.0010224310776326291
0.0026638203246608849,-0.47246234772115264,-0.0010224310776326291
0.002713820324660885,-0.46243065738616634,-0.0010224310776326291
0.0027638203246608847,-0.45206457737334715,-0.0010224310776326291
0.0028138203246608848,-0.4420328870383608,-0.0010224310776326291
0.002863820324660885,-0.43233558638120739,-0.0010224310776326291
0.0029138203246608847,-0.42230389604622109,-0.0010224310776326291
0.0029638203246608848,-0.41227220571123474,-0.0010224310776326291
0.0030138203246608849,-0.40190612569841555,-0.0010224310776326291
0.0030638203246608851,-0.39254321471909498,-0.0010224310776326291
0.0031138203246608848,-0.38217713470627579,-0.0010224310776326291
0.0031638203246608849,-0.37214544437128949,-0.0010224310776326291
0.003213820324660885,-0.36211375403630319,-0.0010224310776326291
0.0032638203246608847,-0.35208206370131689,-0.0010224310776326291
0.0033138203246608849,-0.34238476304416343,-0.0010224310776326291
0.003363820324660885,-0.33201868303134424,-0.0010224310776326291
0.0034138203246608847,-0.32198699269635794,-0.0010224310776326291
0.0034638203246608848,-0.31195530236137159,-0.0010224310776326291
0.0035138203246608849,-0.30192361202638529,-0.0010224310776326291
0.0035638203246608851,-0.29189192169139899,-0.0010224310776326291
0.0036138203246608848,-0.28186023135641264,-0.0010224310776326291
0.0036638203246608849,-0.27216293069925923,-0.0010224310776326291
0.003713820324660885,-0.26213124036427293,-0.0010224310776326291
0.0037638203246608847,-0.25176516035145374,-0.00068780445286276311
0.0038138203246608849,-0.24206785969430025,-0.0010224310776326291
0.003863820324660885,-0.23203616935931395,-0.0010224310776326291
0.0039138203246608851,-0.22200447902432763,-0.0010224310776326291
0.0039638203246608857,-0.2119727886893413,-0.0010224310776326291
0.0040138203246608854,-0.201941098354355,-0.0010224310776326291
0.0040638203246608851,-0.19224379769720157,-0.0010224310776326291
0.0041138203246608857,-0.18221210736221524,-0.0010224310776326291
0.0041638203246608853,-0.17184602734939605,-0.0010224310776326291
0.004213820324660885,-0.16147994733657686,-0.0010224310776326291
0.0042638203246608856,-0.15144825700159054,-0.0010224310776326291
0.0043138203246608853,-0.1417509563444371,-0.0010224310776326291
0.004363820324660885,-0.1317192660094508,-0.0010224310776326291
0.0044138203246608856,-0.12168757567446448,-0.00068780445286276311
0.0044638203246608853,-0.11165588533947816,-0.0010224310776326291
0.004513820324660885,-0.10162419500449185,-0.0010224310776326291
0.0045638203246608855,-0.091926894347338403,-0.0010224310776326291
0.0046138203246608852,-0.081895204012352091,-0.0010224310776326291
0.0046638203246608849,-0.071863513677365778,-0.0010224310776326291
0.0047138203246608855,-0.061831823342379466,-0.00068780445286276311
0.0047638203246608852,-0.051800133007393154,-0.0010224310776326291
0.0048138203246608849,-0.041768442672406841,-0.0010224310776326291
0.0048638203246608855,-0.031736752337420529,-0.0010224310776326291
0.0049138203246608851,-0.02170506200243421,-0.0010224310776326291
0.0049638203246608857,-0.011673371667447894,-0.0010224310776326291
0.0050138203246608854,-0.0019760710102944569,-0.0010224310776326291
0.0050638203246608851,0.0080556193246918584,-0.0010224310776326291
0.0051138203246608857,0.018087309659678173,-0.0010224310776326291
0.0051638203246608854,0.028453389672497366,-0.0010224310776326291
0.0052138203246608851,0.038485080007483685,-0.0010224310776326291
0.0052638203246608856,0.04818238066463712,-0.0010224310776326291
0.0053138203246608853,0.058214070999623432,-0.0010224310776326291
0.005363820324660885,0.068245761334609745,-0.0010224310776326291
0.0054138203246608856,0.078277451669596071,-0.0010224310776326291
0.0054638203246608853,0.088309142004582383,-0.0010224310776326291
0.005513820324660885,0.098340832339568696,-0.0010224310776326291
0.0055638203246608856,0.10837252267455501,-0.00068780445286276311
0.0056138203246608852,0.11840421300954132,-0.0010224310776326291
0.0056638203246608849,0.12877029302236051,-0.0010224310776326291
0.0057138203246608855,0.13880198335734684,-0.00068780445286276311
0.0057638203246608852,0.14883367369233313,-0.0010224310776326291
0.0058138203246608849,0.15886536402731946,-0.0010224310776326291
0.0058638203246608855,0.1685626646844729,-0.00068780445286276311
0.0059138203246608852,0.17859435501945922,-0.0010224310776326291
0.0059638203246608857,0.18862604535444552,-0.0010224310776326291
0.0060138203246608854,0.19865773568943185,-0.00068780445286276311
0.0060638203246608851,0.20868942602441815,-0.00068780445286276311
0.0061138203246608857,0.21872111635940447,-0.0010224310776326291
0.0061638203246608854,0.2287528066943908,-0.00068780445286276311
0.0062138203246608851,0.23845010735154423,-0.0010224310776326291
0.0062638203246608857,0.24848179768653053,-0.0010224310776326291
0.0063138203246608854,0.2585134880215168,-0.0010224310776326291
0.006363820324660885,0.26854517835650316,-0.00068780445286276311
