Lab 7/Demo/PNP Charac Data.csv

#Digilent WaveForms Oscilloscope Acquisition
#Device Name: Discovery2NI
#Serial Number: SN:210321A291F6
#Date Time: 2018-03-21 19:59:43.819
#Sample rate: 20000Hz
#Samples: 256
#Trigger: Source: Channel 1 Type: Edge Condition: Rising Level: 0 V Hyst.: Auto HoldOff: 0 s
#Channel 1: Range: 1 V/div Offset: 0 V
#Channel 2: Range: 1 V/div Offset: 0 V

Time (s),Channel 1 (V),Channel 2 (V)
0.058099999999999999,0.27140714507331215,-0.82935682980203806
0.05815,0.27140714507331215,-0.80361603503709234
0.058200000000000002,0.27140714507331215,-0.77787524027214638
0.058250000000000003,0.27140714507331215,-0.75213444550720054
0.058300000000000005,0.27140714507331193,-0.72639365074225504
0.058349999999999999,0.26773141165639841,-0.70433011237230447
0.058400000000000001,0.26773141165639819,-0.67858931760735897
0.058450000000000002,0.26773141165639819,-0.65284852284241313
0.058500000000000003,0.26405567823948428,-0.62710772807746729
0.058550000000000005,0.26773141165639797,-0.60136693331252167
0.058599999999999999,0.26405567823948434,-0.57930339494257088
0.058650000000000001,0.26405567823948417,-0.55356260017762526
0.058700000000000002,0.2603799448225701,-0.52782180541267942
0.058750000000000004,0.25670421140565569,-0.50208101064773358
0.058800000000000005,0.24567701115491361,-0.4763402158827878
0.05885,0.23832554432108644,-0.45059942111784562
0.058900000000000001,0.22362261065343036,-0.42485862635289978
0.058950000000000002,0.2125954104026879,-0.40279508798294605
0.059000000000000004,0.19789247673503133,-0.37337703682300827
0.059050000000000005,0.17951380965046079,-0.35131349845305443
0.0591,0.16113514256589287,-0.32557270368811231
0.059150000000000001,0.14643220889823627,-0.30350916531815858
0.059200000000000003,0.12805354181366579,-0.2777683705532128
0.059250000000000004,0.10967487472909526,-0.25202757578826696
0.059300000000000005,0.091296207644524979,-0.22628678102332114
0.05935,0.076593273976870643,-0.20054598625837899
0.059400000000000001,0.058214606892300264,-0.17848244788842524
0.059450000000000003,0.039835939807729676,-0.15274165312347912
0.059500000000000004,0.02880873955698714,-0.1270008583585335
0.059549999999999999,0.014105805889332801,-0.10493731998858305
0.0596,0.0030786056385902708,-0.079196525223637446
0.059650000000000002,-0.0079485946121520528,-0.053455730458691619
0.059700000000000003,-0.011624328029056131,-0.02771493569387894
0.059750000000000004,0.33757034657776319,-4.6867987881488267
0.059799999999999999,0.31919167949319527,-5.0067200945131081
0.05985,0.31919167949319421,-4.962593017773222
0.059900000000000002,0.31919167949319421,-4.9294977102182918
0.059950000000000003,0.3191916794931941,-4.9037569154533456
0.060000000000000005,0.31551594607628042,-4.8780161206884003
0.060049999999999999,0.31919167949319399,-4.8559525823184488
0.060100000000000001,0.31919167949319421,-4.8302117875535044
0.060150000000000002,0.3155159460762802,-4.8081482491835503
0.060200000000000004,0.3155159460762802,-4.7824074544186042
0.060249999999999998,0.3155159460762802,-4.7566666596536615
0.060299999999999999,0.3155159460762802,-4.7309258648887162
0.060350000000000001,0.3155159460762802,-4.7051850701237701
0.060400000000000002,0.31919167949319416,-4.6794442753588248
0.060450000000000004,0.3155159460762802,-4.6537034805938786
0.060499999999999998,0.3155159460762802,-4.627962685828936
0.06055,0.3155159460762802,-4.6058991474589828
0.060600000000000001,0.3155159460762802,-4.5801583526940366
0.060650000000000003,0.3155159460762802,-4.5544175579290913
0.060700000000000004,0.3155159460762802,-4.5286767631641451
0.060749999999999998,0.3155159460762802,-4.5066132247941955
0.0608,0.3155159460762802,-4.4771951736342572
0.060850000000000001,0.3155159460762802,-4.4551316352643031
0.060900000000000003,0.31551594607628014,-4.4257135841043658
0.060950000000000004,0.31184021265936634,-4.4036500457344125
0.060999999999999999,0.31551594607627997,-4.3779092509694699
0.06105,0.3155159460762802,-4.3558457125995158
0.061100000000000002,0.31184021265936618,-4.3301049178345696
0.061150000000000003,0.31184021265936618,-4.3043641230696243
0.061200000000000004,0.31184021265936618,-4.2786233283046782
0.061249999999999999,0.31184021265936618,-4.2528825335397364
0.0613,0.31184021265936618,-4.2271417387747903
0.061350000000000002,0.31184021265936618,-4.2014009440098441
0.061400000000000003,0.31184021265936618,-4.1793374056398909
0.061450000000000005,0.31184021265936618,-4.1535966108749456
0.061499999999999999,0.31184021265936618,-4.1315330725049941
0.061550000000000001,0.31184021265936618,-4.1057922777400488
0.061600000000000002,0.30816447924245222,-4.0800514829751036
0.061650000000000003,0.30816447924245222,-4.0543106882101574
0.061700000000000005,0.30816447924245244,-4.0285698934452112
0.061749999999999999,0.31184021265936596,-4.0028290986802695
0.061800000000000001,0.31184021265936618,-3.9770883039153233
0.061850000000000002,0.30816447924245222,-3.9513475091503771
0.061900000000000004,0.31184021265936607,-3.9256067143854319
0.061950000000000005,0.30816447924245244,-3.9035431760154782
0.062,0.31184021265936601,-3.8778023812505351
0.062050000000000001,0.30816447924245227,-3.8520615864855894
0.062100000000000002,0.30816447924245222,-3.8263207917206437
0.062150000000000004,0.30816447924245222,-3.8005799969556979
0.062200000000000005,0.30816447924245249,-3.7748392021907522
0.06225,0.31184021265936601,-3.7490984074258096
0.062300000000000001,0.30816447924245227,-3.7270348690558563
0.062350000000000003,0.30816447924245222,-3.7012940742909102
0.062400000000000004,0.30816447924245222,-3.6755532795259649
0.062449999999999999,0.30816447924245222,-3.6534897411560139
0.0625,0.30816447924245222,-3.6277489463910686
0.062550000000000008,0.3044887458255382,-3.6020081516261189
0.062600000000000003,0.30448874582553831,-3.5762673568611771
0.062649999999999997,0.30816447924245188,-3.5542038184912261
0.062700000000000006,0.3044887458255382,-3.5284630237262773
0.06275,0.3044887458255382,-3.5027222289613351
0.062800000000000009,0.3044887458255382,-3.4769814341963854
0.062850000000000003,0.3044887458255382,-3.4512406394314437
0.062899999999999998,0.3044887458255382,-3.4291771010614931
0.062950000000000006,0.30816447924245188,-3.4034363062965438
0.063,0.30448874582553831,-3.3776955115316016
0.063049999999999995,0.3044887458255382,-3.3519547167666595
0.063100000000000003,0.3044887458255382,-3.3262139220017097
0.063149999999999998,0.3044887458255382,-3.300473127236768
0.063200000000000006,0.3044887458255382,-3.2784095888668103
0.063250000000000001,0.3044887458255382,-3.2526687941018686
0.063299999999999995,0.30081301240862462,-3.2269279993369255
0.063350000000000004,0.30448874582553809,-3.2048644609669688
0.063399999999999998,0.30081301240862446,-3.1791236662020261
0.063450000000000006,0.3044887458255382,-3.1533828714370777
0.063500000000000001,0.3044887458255382,-3.1313193330671267
0.063549999999999995,0.30081301240862462,-3.1019012819071929
0.063600000000000004,0.3044887458255382,-3.0761604871422432
0.063649999999999998,0.3044887458255382,-3.0504196923773006
0.063700000000000007,0.30448874582553781,-3.0246788976123518
0.063750000000000001,0.30081301240862424,-3.0026153592424016
0.063799999999999996,0.30081301240862418,-2.976874564477459
0.063850000000000004,0.30081301240862418,-2.9511337697125097
0.063899999999999998,0.30081301240862418,-2.9290702313425596
0.063950000000000007,0.30081301240862418,-2.9033294365776099
0.064000000000000001,0.30081301240862418,-2.8775886418126682
0.064049999999999996,0.30081301240862418,-2.8518478470477255
0.064100000000000004,0.30081301240862418,-2.8261070522827767
0.064149999999999999,0.30081301240862418,-2.8040435139128257
0.064200000000000007,0.29713727899171055,-2.7783027191478769
0.064250000000000002,0.30081301240862418,-2.7525619243829342
0.064299999999999996,0.29713727899171061,-2.7268211296179925
0.064350000000000004,0.30081301240862396,-2.7047575912480348
0.064399999999999999,0.29713727899171039,-2.6790167964830927
0.064450000000000007,0.29713727899171016,-2.6532760017181429
0.064500000000000002,0.29713727899171016,-2.6275352069532012
0.064549999999999996,0.29713727899171016,-2.601794412188259
0.064600000000000005,0.29713727899171016,-2.5797308738183018
0.064649999999999999,0.29713727899171016,-2.5539900790533592
0.064700000000000008,0.29713727899170972,-2.5282492842884099
0.064750000000000002,0.2934615455747962,-2.5025084895234677
0.064799999999999996,0.29713727899170972,-2.4767676947585255
0.064850000000000005,0.29713727899170994,-2.4547041563885683
0.064899999999999999,0.29346154557479642,-2.4289633616236257
0.064950000000000008,0.29713727899171016,-2.4032225668586764
0.065000000000000002,0.29713727899171016,-2.3774817720937342
0.065049999999999997,0.29346154557479665,-2.3517409773287925
0.065100000000000005,0.2934615455747962,-2.3296774389588348
0.06515,0.2934615455747962,-2.3039366441938927
0.065200000000000008,0.2934615455747962,-2.2781958494289429
0.065250000000000002,0.2934615455747962,-2.2524550546640012
0.065299999999999997,0.2934615455747962,-2.2303915162940497
0.065350000000000005,0.2934615455747962,-2.2046507215291018
0.0654,0.2934615455747962,-2.1789099267641587
0.065450000000000008,0.2934615455747962,-2.1531691319992099
0.065500000000000003,0.2934615455747962,-2.1274283372342668
0.065549999999999997,0.2934615455747962,-2.1016875424693247
0.065600000000000006,0.28978581215788252,-2.079624004099367
0.06565,0.29346154557479609,-2.0502059529394332
0.065700000000000008,0.28978581215788218,-2.028142414569476
0.065750000000000003,0.28978581215788218,-2.0024016198045338
0.065799999999999997,0.28978581215788218,-1.9803380814345832
0.065850000000000006,0.28978581215788218,-1.9545972866696344
0.0659,0.28978581215788218,-1.928856491904692
0.065950000000000009,0.28978581215788218,-1.9031156971397429
0.066000000000000003,0.28978581215788218,-1.8773749023748005
0.066049999999999998,0.28978581215788218,-1.8516341076098581
0.066100000000000006,0.28978581215788218,-1.8258933128449089
0.06615,0.28978581215788218,-1.8001525180799665
0.066199999999999995,0.28611007874096867,-1.7780889797100161
0.066250000000000003,0.28978581215788207,-1.7560254413400596
0.066299999999999998,0.2861100787409685,-1.7302846465751172
0.066350000000000006,0.28978581215788185,-1.7045438518101672
0.066400000000000001,0.28611007874096828,-1.6751258006502336
0.066449999999999995,0.28611007874096817,-1.6530622622802826
0.066500000000000004,0.28611007874096817,-1.627321467515334
0.066549999999999998,0.28611007874096817,-1.601580672750391
0.066600000000000006,0.28611007874096817,-1.5758398779854428
0.066650000000000001,0.28611007874096817,-1.5537763396154913
0.066699999999999995,0.28611007874096817,-1.5280355448505494
0.066750000000000004,0.28611007874096817,-1.5059720064805917
0.066799999999999998,0.28611007874096817,-1.48023121171565
0.066850000000000007,0.28611007874096817,-1.4508131605557086
0.066900000000000001,0.28611007874096817,-1.4287496221857583
0.066949999999999996,0.28611007874096817,-1.4030088274208159
0.067000000000000004,0.2824343453240542,-1.3772680326558662
0.067049999999999998,0.2824343453240542,-1.3515272378909244
0.067100000000000007,0.2824343453240542,-1.3257864431259752
0.067150000000000001,0.2824343453240542,-1.3037229047560248
0.067199999999999996,0.2824343453240542,-1.2816593663860745
0.067250000000000004,0.2824343453240542,-1.2559185716211252
0.067299999999999999,0.2824343453240542,-1.230177776856183
0.067350000000000007,0.27875861190714063,-1.2044369820912337
0.067400000000000002,0.2824343453240542,-1.1786961873262913
0.067449999999999996,0.27875861190714063,-1.1529553925613494
0.067500000000000004,0.27875861190714019,-1.1272145977963997
0.067549999999999999,0.27875861190714019,-1.1014738030314579
0.067600000000000007,0.27875861190713974,-1.0757330082665086
0.067650000000000002,0.27508287849022617,-1.0536694698965583
0.067699999999999996,0.27875861190713974,-1.0279286751316159
0.067750000000000005,0.27875861190714019,-1.0021878803666666
0.067799999999999999,0.27875861190714019,-0.97644708560172433
0.067850000000000008,0.27508287849022617,-0.95070629083677494
0.067900000000000002,0.27508287849022617,-0.92496549607183265
0.067949999999999997,0.27508287849022617,-0.89922470130689047
0.068000000000000005,0.27508287849022617,-0.8734839065419413
0.068049999999999999,0.27508287849022617,-0.85142036817199074
0.068100000000000008,0.27508287849022572,-0.8256795734070419
0.068150000000000002,0.27140714507331215,-0.80361603503709156
0.068199999999999997,0.27140714507331215,-0.77787524027214927
0.068250000000000005,0.27140714507331215,-0.75213444550719988
0.0683,0.27140714507331215,-0.7263936507422577
0.068350000000000008,0.27140714507331171,-0.70433011237229992
0.068400000000000002,0.26773141165639819,-0.67491206121236602
0.068449999999999997,0.26773141165639819,-0.65284852284241568
0.068500000000000005,0.26773141165639819,-0.62710772807746662
0.06855,0.26773141165639819,-0.60136693331252433
0.068600000000000008,0.26773141165639774,-0.57562613854757527
0.068650000000000003,0.26405567823948417,-0.55356260017762493
0.068699999999999997,0.26037994482257049,-0.52782180541268198
0.068750000000000006,0.25670421140565552,-0.50208101064773325
0.0688,0.24567701115491444,-0.47634021588279035
0.068849999999999995,0.23832554432108718,-0.45059942111784818
0.068900000000000003,0.22729834407034372,-0.42485862635289867
0.068949999999999997,0.21259541040268937,-0.39911783158795655
0.069000000000000006,0.19789247673503055,-0.37337703682300732
0.06905,0.17951380965046262,-0.35131349845305687
0.069099999999999995,0.1611351425658947,-0.32557270368811486
0.069150000000000003,0.14643220889823555,-0.30350916531815753
0.069199999999999998,0.12805354181366763,-0.2777683705532154
0.069250000000000006,0.10967487472909479,-0.25202757578826585
0.0693,0.09497194106144044,-0.2262867810233237
0.069349999999999995,0.076593273976872628,-0.20054598625838155
0.069400000000000003,0.058214606892299584,-0.17480519149343204
0.069449999999999998,0.043511673224645241,-0.14906439672848987
0.069500000000000006,0.028808739556986724,-0.1233236019635407
0.069550000000000001,0.014105805889332383,-0.10126006359359027
0.069599999999999995,0.003078605638591211,-0.075519268828647484
0.069650000000000004,-0.0042728611952384679,-0.053455730458689947
0.069699999999999998,-0.011624328029065637,-0.024037679298756037
0.069750000000000006,0.33389461316084895,-4.6610579933839027
0.069800000000000001,0.32286741291010823,-5.0030428381181347
0.069849999999999995,0.32286741291010823,-4.9589157613782335
0.069900000000000004,0.31919167949319421,-4.92949771021829
0.069949999999999998,0.31919167949319421,-4.9037569154533482
0.070000000000000007,0.31919167949319421,-4.8780161206883985
0.070050000000000001,0.31919167949319421,-4.855952582318448
0.070099999999999996,0.31919167949319421,-4.8302117875535062
0.070150000000000004,0.31919167949319421,-4.8044709927885574
0.070199999999999999,0.31919167949319421,-4.7824074544186059
0.070250000000000007,0.31919167949319421,-4.7566666596536562
0.070300000000000001,0.31919167949319421,-4.7272486084937224
0.070349999999999996,0.31919167949319421,-4.7015078137287807
0.070400000000000004,0.31919167949319421,-4.6757670189638318
0.070449999999999999,0.31919167949319421,-4.6537034805938804
0.070500000000000007,0.31919167949319421,-4.6279626858289316
0.070550000000000002,0.31919167949319421,-4.6058991474589819
0.070599999999999996,0.31919167949319421,-4.5801583526940393
0.070650000000000004,0.3155159460762802,-4.5580948143240816
0.070699999999999999,0.3155159460762802,-4.5323540195591399
0.070750000000000007,0.3155159460762802,-4.5066132247941901
0.070800000000000002,0.3155159460762802,-4.4771951736342563
0.070849999999999996,0.3155159460762802,-4.4551316352643058
