Lab 7/Experimental Plots/NPN Charac Data.csv

#Digilent WaveForms Oscilloscope Acquisition
#Device Name: Discovery2NI
#Serial Number: SN:210321A291F6
#Date Time: 2018-03-21 13:32:40.172
#Sample rate: 9900.99Hz
#Samples: 256
#Trigger: Source: Channel 1 Type: Edge Condition: Rising Level: 0 V Hyst.: Auto HoldOff: 0 s
#Channel 1: Range: 500 mV/div Offset: 0 V
#Channel 2: Range: 500 mV/div Offset: 0 V

Time (s),Channel 1 (V),Channel 2 (V)
-0.023028,0.048851160020302875,0.61301742537507142
-0.022926999999999999,0.056207732932626167,0.61703294487230986
-0.022825999999999999,0.063898695522782351,0.6207138377447784
-0.022724999999999999,0.07158965811293852,0.62406010399247702
-0.022623999999999998,0.078946231025261937,0.62707174361540585
-0.022523000000000001,0.086637193615417774,0.62974875661356466
-0.022421999999999997,0.094662545883407154,0.63209114298695379
-0.022321000000000001,0.10235350847356312,0.63409890273557301
-0.022219999999999997,0.1103788607415525,0.63610666248419234
-0.022119,0.11806982333170844,0.63811442223281134
-0.022017999999999999,0.12609517559969749,0.63978755535666076
-0.021916999999999999,0.13412052786768655,0.64179531510527987
-0.021815999999999999,0.14214588013567561,0.64313382160435939
-0.021714999999999998,0.14983684272583189,0.6448069547282087
-0.021614000000000001,0.15786219499382073,0.64614546122728822
-0.021512999999999997,0.16555315758397712,0.64748396772636763
-0.021412,0.17391289952979883,0.64848784760067724
-0.021311,0.18193825179778789,0.65016098072452655
-0.02121,0.18996360406577703,0.65116486059883616
-0.021108999999999999,0.19798895633376609,0.65216874047314577
-0.021007999999999999,0.20601430860175515,0.65317262034745538
-0.020906999999999999,0.2140396608697443,0.65417650022176499
-0.020805999999999998,0.22206501313773336,0.6551803800960746
-0.020705000000000001,0.2300903654057222,0.65618425997038421
-0.020603999999999997,0.23778132799587859,0.65718813984469371
-0.020503,0.24614106994170029,0.65819201971900332
-0.020402,0.25416642220968932,0.65886127296854313
-0.020301,0.2621917744776785,0.65986515284285263
-0.020199999999999999,0.2702171267456675,0.66053440609239245
-0.020098999999999999,0.27824247901365656,0.66153828596670206
-0.019997999999999998,0.28626783128164573,0.66254216584101167
-0.019896999999999998,0.2942931835496348,0.66321141909055137
-0.019796000000000001,0.30231853581762363,0.66388067234009107
-0.019694999999999997,0.31067827776344575,0.66488455221440068
-0.019594,0.3183692403536017,0.66555380546394038
-0.019493,0.32639459262159087,0.66622305871348009
-0.019392,0.33441994488957993,0.6668923119630199
-0.019290999999999999,0.342445297157569,0.6675615652125596
-0.019189999999999999,0.35080503910339095,0.66823081846209931
-0.019089000000000002,0.35883039137137973,0.66890007171163901
-0.018987999999999998,0.36685574363936913,0.66956932496117882
-0.018887000000000001,0.37521548558519086,0.66990395158594862
-0.018785999999999997,0.38324083785318025,0.67057320483548843
-0.018685,0.39126619012116898,0.67124245808502814
-0.018584,0.39929154238915809,0.67191171133456784
-0.018482999999999999,0.40731689465714715,0.67224633795933775
-0.018381999999999999,0.41534224692513622,0.67291559120887745
-0.018280999999999999,0.42336759919312528,0.67325021783364736
-0.018180000000000002,0.43172734113894695,0.67391947108318706
-0.018078999999999998,0.43975269340693635,0.67458872433272676
-0.017978000000000001,0.44777804567492518,0.67492335095749667
-0.017877000000000001,0.45613778762074714,0.67525797758226647
-0.017776,0.4641631398887362,0.67592723083180628
-0.017675,0.47218849215672531,0.67626185745657608
-0.017573999999999999,0.48021384442471438,0.67659648408134598
-0.017472999999999999,0.48823919669270344,0.67726573733088569
-0.017371999999999999,0.49626454896069261,0.67760036395565559
-0.017270999999999998,0.50428990122868167,0.6779349905804255
-0.017169999999999998,0.51264964317450368,0.6786042438299652
-0.017069000000000001,0.52067499544249252,0.678938870454735
-0.016968,0.52836595803264863,0.67927349707950491
-0.016867,0.53672569997847064,0.67960812370427481
-0.016766,0.54508544192429265,0.68027737695381452
-0.016664999999999999,0.55277640451444876,0.68061200357858442
-0.016563999999999999,0.56113614646027077,0.68128125682812413
-0.016462999999999998,0.56916149872825972,0.68161588345289392
-0.016362000000000002,0.57718685099624856,0.68195051007766383
-0.016260999999999998,0.58521220326423795,0.68261976332720353
-0.016160000000000001,0.59323755553222679,0.68261976332720353
-0.016059,0.60126290780021596,0.68328901657674335
-0.015958,0.60928826006820502,0.68362364320151314
-0.015857,0.61731361233619408,0.68395826982628305
-0.015755999999999999,0.62567335428201598,0.68429289645105285
-0.015654999999999999,0.63403309622783799,0.68462752307582275
-0.015553999999999998,0.64205844849582694,0.68496214970059266
-0.015453,0.650083800763816,0.68529677632536246
-0.015351999999999999,0.65810915303180506,0.68596602957490227
-0.015251000000000001,0.66613450529979401,0.68596602957490227
-0.01515,0.67415985756778318,0.68663528282444197
-0.015049,0.48656724830353903,0.5527846329164956
-0.014947999999999999,0.0060492812576945949,0.027086205403036114
-0.014846999999999999,0.0060492812576945949,0.064899014002030964
-0.014745999999999999,0.0060492812576945949,0.10739659534780395
-0.014644999999999998,0.0060492812576945949,0.15022880331834743
-0.014544,0.0060492812576945949,0.19272638466411979
-0.014442999999999999,0.0060492812576945949,0.23522396600989276
-0.014342000000000001,0.0060492812576945949,0.27772154735566512
-0.014241,0.0060492812576945949,0.32055375532620861
-0.01414,0.0063836709355274725,0.36271671004721168
-0.014038999999999999,0.0060492812576945949,0.40521429139298465
-0.013937999999999999,0.0060492812576945949,0.44737724611398777
-0.013836999999999999,0.0063836709355274725,0.48853632096068128
-0.013736,0.0077212296468589809,0.52534524968536656
-0.013635,0.010396347069521998,0.55378851279080521
-0.013533999999999999,0.015077802559182278,0.57286223040268758
-0.013433,0.021096816760174067,0.58591266876871229
-0.013332,0.027450220638998733,0.59494758763749866
-0.013231,0.034472403873489155,0.60230937338243573
-0.013129999999999999,0.041494587107979569,0.60799802600352348
-0.013028999999999999,0.048851160020302875,0.61268279875030163
-0.012927999999999999,0.056207732932626278,0.61703294487230986
-0.012827,0.063898695522782351,0.6207138377447784
-0.012725999999999999,0.07158965811293852,0.62406010399247702
-0.012624999999999999,0.078946231025261826,0.62707174361540585
-0.012524,0.086637193615417996,0.62974875661356478
-0.012423,0.094662545883407043,0.631756516362184
-0.012322,0.10235350847356323,0.63409890273557301
-0.012220999999999999,0.11037886074155227,0.63610666248419223
-0.012119999999999999,0.11806982333170844,0.63811442223281134
-0.012019,0.12609517559969749,0.63978755535666076
-0.011918,0.13378613818985369,0.64146068848051008
-0.011816999999999999,0.14181149045784272,0.64313382160435939
-0.011715999999999999,0.14983684272583178,0.6444723281034388
-0.011615,0.15786219499382084,0.64614546122728822
-0.011514,0.16588754726180988,0.64748396772636763
-0.011413,0.17357850985196605,0.64882247422544714
-0.011311999999999999,0.18160386211995511,0.65016098072452655
-0.011210999999999999,0.18996360406577714,0.65116486059883616
-0.01111,0.19798895633376609,0.65250336709791568
-0.011009,0.20601430860175515,0.65317262034745538
-0.010907999999999999,0.21403966086974419,0.65451112684653479
-0.010806999999999999,0.22206501313773325,0.6551803800960746
-0.010706,0.22975597572788942,0.65651888659515401
-0.010605,0.23811571767371134,0.65718813984469371
-0.010503999999999999,0.2461410699417004,0.65819201971900332
-0.010402999999999999,0.25416642220968944,0.65919589959331293
-0.010302,0.26219177447767839,0.65986515284285263
-0.010201,0.2702171267456675,0.66053440609239245
-0.0101,0.27824247901365656,0.66153828596670206
-0.0099989999999999992,0.28626783128164562,0.66254216584101167
-0.0098979999999999988,0.29429318354963468,0.66321141909055137
-0.0097970000000000002,0.30231853581762375,0.66388067234009107
-0.0096959999999999998,0.31034388808561281,0.66454992558963077
-0.0095949999999999994,0.31836924035360181,0.66555380546394038
-0.009493999999999999,0.32639459262159087,0.66622305871348009
-0.0093930000000000003,0.33441994488957993,0.6668923119630199
-0.0092919999999999999,0.342445297157569,0.6675615652125596
-0.0091909999999999995,0.35080503910339095,0.66823081846209931
-0.0090899999999999991,0.35883039137137995,0.66890007171163901
-0.0089890000000000005,0.36685574363936901,0.66923469833640892
-0.0088880000000000001,0.37521548558519097,0.66990395158594862
-0.0087869999999999997,0.38324083785318003,0.67057320483548843
-0.0086859999999999993,0.39126619012116909,0.67124245808502814
-0.0085849999999999989,0.39929154238915809,0.67191171133456784
-0.0084840000000000002,0.40731689465714715,0.67224633795933775
-0.0083829999999999998,0.41534224692513622,0.67291559120887745
-0.0082819999999999994,0.42370198887095817,0.67358484445841715
-0.008180999999999999,0.43172734113894717,0.67391947108318706
-0.0080800000000000004,0.43975269340693623,0.67425409770795697
-0.007979,0.4477780456749253,0.67492335095749667
-0.0078779999999999996,0.45613778762074725,0.67559260420703637
-0.0077769999999999992,0.46416313988873631,0.67559260420703637
-0.0076759999999999997,0.47185410247889248,0.67626185745657608
-0.0075750000000000001,0.48021384442471438,0.67659648408134598
-0.0074739999999999997,0.48823919669270344,0.67726573733088569
-0.0073729999999999993,0.4962645489606925,0.67760036395565559
-0.0072719999999999998,0.50462429090651451,0.6779349905804255
-0.0071710000000000003,0.51264964317450357,0.6786042438299652
-0.0070699999999999999,0.52067499544249263,0.678938870454735
-0.0069689999999999995,0.52870034771048158,0.67960812370427481
-0.0068679999999999991,0.53672569997847064,0.67994275032904461
-0.0067669999999999996,0.54508544192429265,0.68027737695381452
-0.0066660000000000001,0.55277640451444876,0.68061200357858442
-0.0065649999999999997,0.56113614646027077,0.68094663020335422
-0.0064639999999999993,0.56916149872825972,0.68161588345289392
-0.0063629999999999997,0.57685246131841594,0.68195051007766383
-0.0062620000000000002,0.58521220326423784,0.68228513670243374
-0.0061609999999999998,0.5932375555322269,0.68261976332720353
-0.0060599999999999994,0.60126290780021596,0.68295438995197344
-0.0059589999999999999,0.60928826006820502,0.68362364320151314
-0.0058579999999999995,0.61764800201402692,0.68395826982628305
-0.005757,0.62567335428201598,0.68429289645105285
-0.0056559999999999996,0.63369870655000504,0.68462752307582275
-0.005555,0.6417240588179941,0.68496214970059266
-0.0054539999999999996,0.64974941108598316,0.68529677632536246
-0.0053530000000000001,0.65777476335397222,0.68563140295013236
-0.0052519999999999997,0.66580011562196129,0.68596602957490227
-0.0051510000000000002,0.67415985756778318,0.68630065619967207
-0.0050499999999999998,0.4942582108936952,0.56048104528620246
-0.0049489999999999994,0.0060492812576945949,0.027420832027805979
-0.0048479999999999999,0.0060492812576945949,0.064899014002030964
-0.0047469999999999995,0.0060492812576945949,0.10706196872303408
-0.004646,0.0060492812576945949,0.14955955006880706
-0.0045449999999999996,0.0060492812576945949,0.19205713141458003
-0.004444,0.0060492812576945949,0.234554712760353
-0.0043429999999999996,0.0060492812576945949,0.27705229410612603
-0.0042420000000000001,0.0060492812576945949,0.31988450207666885
-0.0041409999999999997,0.0060492812576945949,0.36238208342244183
-0.0040400000000000002,0.0060492812576945949,0.40454503814344495
-0.0039389999999999998,0.0060492812576945949,0.44704261948921792
-0.0038379999999999994,0.0067180606133603491,0.48786706771114158
-0.0037369999999999999,0.0077212296468589809,0.52501062306059665
-0.0036359999999999995,0.010396347069521998,0.5534538861660353
-0.0035349999999999999,0.015077802559182278,0.57252760377791767
-0.0034339999999999996,0.021096816760174067,0.58557804214394249
-0.003333,0.027784610316831611,0.59528221426226857
-0.0032319999999999996,0.034138014195656277,0.60230937338243573
-0.0031310000000000001,0.041494587107979569,0.60799802600352348
-0.0030299999999999997,0.048851160020302875,0.61268279875030163
-0.0029290000000000002,0.056207732932626167,0.61703294487230986
-0.0028279999999999998,0.063898695522782351,0.6207138377447784
-0.0027270000000000003,0.07158965811293852,0.62406010399247702
-0.0026259999999999999,0.078946231025261826,0.62673711699063595
-0.0025249999999999995,0.086637193615417996,0.62941412998879487
-0.0024239999999999999,0.094328156205574165,0.63209114298695379
-0.0023229999999999995,0.10201911879573035,0.6337642761108031
-0.002222,0.1100444710637194,0.63610666248419223
-0.0021209999999999996,0.11806982333170844,0.63811442223281134
-0.0020199999999999992,0.12609517559969749,0.63978755535666076
-0.0019190000000000006,0.13412052786768655,0.64146068848051008
-0.0018180000000000002,0.14181149045784272,0.64313382160435939
-0.0017169999999999998,0.14983684272583178,0.6444723281034388
-0.0016159999999999994,0.15786219499382084,0.64614546122728822
-0.0015150000000000007,0.16555315758397701,0.64748396772636763
-0.0014140000000000003,0.17357850985196605,0.64848784760067724
-0.0013129999999999999,0.18160386211995511,0.64982635409975675
-0.0012119999999999995,0.18962921438794417,0.65116486059883616
-0.0011109999999999991,0.19798895633376609,0.65216874047314577
-0.0010100000000000005,0.20601430860175515,0.65317262034745538
-0.00090900000000000009,0.21370527119191132,0.65417650022176499
-0.00080799999999999969,0.22173062345990036,0.6551803800960746
-0.0007069999999999993,0.22975597572788942,0.65618425997038421
-0.00060600000000000064,0.23778132799587848,0.65718813984469371
-0.00050500000000000024,0.2461410699417004,0.65819201971900332
-0.00040399999999999985,0.25383203253185654,0.65886127296854313
-0.00030299999999999945,0.2621917744776785,0.65986515284285263
-0.00020200000000000079,0.26988273706783467,0.66053440609239245
-0.0001010000000000004,0.27790808933582373,0.66153828596670206
0,0.28626783128164562,0.66220753921624176
0.0001010000000000004,0.29395879387180179,0.66321141909055137
0.00020200000000000079,0.30231853581762375,0.66388067234009107
0.00030299999999999945,0.31034388808561281,0.66454992558963077
0.00040399999999999985,0.31836924035360181,0.66521917883917059
0.00050500000000000024,0.32639459262159087,0.66588843208871029
0.00060600000000000064,0.33441994488957993,0.66655768533824999
0.0007069999999999993,0.342445297157569,0.6675615652125596
0.00080799999999999969,0.35047064942555806,0.66789619183732951
0.00090900000000000009,0.35883039137137995,0.66856544508686921
0.0010100000000000005,0.36685574363936901,0.66923469833640892
0.0011110000000000009,0.37488109590735808,0.66990395158594862
0.0012119999999999995,0.38290644817534714,0.67057320483548843
0.0013129999999999999,0.39126619012116909,0.67124245808502814
0.0014140000000000003,0.39929154238915809,0.67191171133456784
0.0015150000000000007,0.40731689465714715,0.67224633795933775
0.0016159999999999994,0.41534224692513622,0.67291559120887745
0.0017169999999999998,0.42336759919312528,0.67325021783364736
0.0018180000000000002,0.43172734113894717,0.67391947108318706
0.0019190000000000006,0.43975269340693623,0.67425409770795697
0.0020199999999999992,0.4477780456749253,0.67492335095749667
0.0021209999999999996,0.45580339794291436,0.67525797758226647
0.002222,0.46382875021090342,0.67592723083180628
0.0023230000000000004,0.47185410247889248,0.67626185745657608
0.0024240000000000008,0.48021384442471438,0.67659648408134598
0.0025249999999999995,0.48823919669270344,0.67726573733088569
0.0026259999999999999,0.4962645489606925,0.67760036395565559
0.0027270000000000003,0.50428990122868156,0.6782696172051953
