Lab 7/Experimental Plots/NPN Charac Data1.csv

#Digilent WaveForms Oscilloscope Acquisition
#Device Name: Discovery2NI
#Serial Number: SN:210321A291F6
#Date Time: 2018-03-21 14:10:53.119
#Sample rate: 10309.3Hz
#Samples: 256
#Trigger: Source: Channel 1 Type: Edge Condition: Rising Level: 0 V Hyst.: Auto HoldOff: 0 s
#Channel 1: Range: 1 V/div Offset: 0 V
#Channel 2: Range: 1 V/div Offset: 0 V

Time (s),Channel 1 (V),Channel 2 (V)
-0.0096030000000000004,-0.22849259962699223,4.4511833534066998
-0.0095060000000000006,-0.22849259962699223,4.4989876865415974
-0.0094090000000000007,-0.22849259962699223,4.5467920196764959
-0.0093120000000000008,-0.22849259962699223,4.5982736092063856
-0.009215000000000001,-0.22849259962699223,4.6460779423412841
-0.0091180000000000011,-0.22849259962699223,4.6938822754761818
-0.0090210000000000012,-0.22849259962699223,4.7085913010561509
-0.0089239999999999996,-0.0042728611952382069,-0.020360422903761111
-0.0088269999999999998,-0.015300061445980215,0.0568619613910736
-0.0087299999999999999,-0.026327261696722067,0.093634525340994645
-0.008633,-0.052057395615120086,0.11569806371094758
-0.0085360000000000002,-0.081463262950432117,0.13776160208090052
-0.0084390000000000003,-0.11086913028574413,0.15247062766086913
-0.0083420000000000005,-0.14027499762105616,0.17085690963582992
-0.0082450000000000006,-0.16968086495636819,0.19292044800578287
-0.0081480000000000007,-0.19541099887476621,0.21866124277072796
-0.0080510000000000009,-0.21011393254242222,0.24807929393066522
-0.007954000000000001,-0.22114113279316422,0.28852911427557892
-0.0078570000000000011,-0.22481686621007824,0.33265619101548483
-0.0077600000000000013,-0.22481686621007824,0.38046052415038217
-0.0076629999999999997,-0.22481686621007824,0.42826485728528152
-0.0075659999999999998,-0.22481686621007824,0.47606919042017892
-0.0074689999999999999,-0.22481686621007824,0.52387352355507699
-0.0073720000000000001,-0.22481686621007824,0.57535511308496712
-0.0072750000000000002,-0.22481686621007824,0.62315944621986519
-0.0071780000000000004,-0.22481686621007824,0.67096377935476326
-0.0070810000000000005,-0.22481686621007824,0.71876811248966122
-0.0069840000000000006,-0.22849259962699223,0.76657244562455928
-0.0068870000000000008,-0.22481686621007824,0.81805403515444941
-0.0067900000000000009,-0.22481686621007824,0.86218111189435531
-0.006693000000000001,-0.22481686621007824,0.91366270142424555
-0.0065960000000000012,-0.22481686621007824,0.96146703455914351
-0.0064990000000000013,-0.22481686621007824,1.0092713676940408
-0.0064019999999999997,-0.22849259962699217,1.0570757008289402
-0.0063049999999999998,-0.22481686621007824,1.1048800339638376
-0.006208,-0.22481686621007824,1.1526843670987357
-0.0061110000000000001,-0.22481686621007824,1.2041659566286258
-0.0060140000000000002,-0.22849259962699223,1.2519702897635239
-0.0059170000000000004,-0.22849259962699223,1.2997746228984219
-0.0058200000000000005,-0.22849259962699223,1.34757895603332
-0.0057230000000000007,-0.22481686621007824,1.3990605455632101
-0.0056260000000000008,-0.22481686621007824,1.4468648786981082
-0.0055290000000000009,-0.22481686621007824,1.4946692118330063
-0.0054320000000000011,-0.22481686621007824,1.5424735449679043
-0.0053350000000000012,-0.22481686621007824,1.5902778781028017
-0.0052380000000000013,-0.22481686621007824,1.6380822112376998
-0.0051409999999999997,-0.22849259962699217,1.6858865443725992
-0.0050439999999999999,-0.22481686621007824,1.7373681339024887
-0.004947,-0.22481686621007824,1.7814952106423942
-0.0048500000000000001,-0.22481686621007824,1.8329768001722848
-0.0047530000000000003,-0.22481686621007824,1.8807811333071829
-0.0046560000000000004,-0.22481686621007824,1.9285854664420805
-0.0045590000000000006,-0.22849259962699223,1.9763897995769786
-0.0044620000000000007,-0.22481686621007824,2.0278713891068691
-0.0043650000000000008,-0.22481686621007824,2.0756757222417672
-0.0042679999999999992,-0.22481686621007829,2.1234800553766662
-0.0041709999999999994,-0.22849259962699217,2.1712843885115642
-0.0040739999999999995,-0.22481686621007824,2.2190887216464619
-0.0039769999999999996,-0.22481686621007824,2.2668930547813599
-0.0038800000000000002,-0.22481686621007824,2.3146973879162571
-0.0037830000000000003,-0.22481686621007824,2.3625017210511552
-0.0036860000000000005,-0.22849259962699223,2.4139833105810453
-0.0035889999999999997,-0.22849259962699223,2.4581103873209513
-0.0034919999999999999,-0.22849259962699223,2.5059147204558494
-0.003395,-0.22849259962699223,2.5573963099857395
-0.0032980000000000002,-0.22849259962699223,2.6052006431206376
-0.0032010000000000003,-0.22849259962699223,2.6530049762555357
-0.0031040000000000004,-0.22849259962699223,2.7008093093904337
-0.0030069999999999997,-0.22849259962699223,2.7522908989203239
-0.0029099999999999998,-0.22849259962699223,2.8000952320552219
-0.002813,-0.22849259962699223,2.84789956519012
-0.0027160000000000001,-0.22481686621007824,2.8993811547200101
-0.0026190000000000002,-0.22849259962699223,2.9435082314599161
-0.0025220000000000004,-0.22481686621007824,2.9913125645948142
-0.0024249999999999996,-0.22849259962699223,3.0427941541247043
-0.0023279999999999998,-0.22849259962699223,3.0905984872596024
-0.0022309999999999999,-0.22849259962699223,3.1384028203945005
-0.002134,-0.22849259962699223,3.1862071535293985
-0.0020370000000000002,-0.22849259962699223,3.2376887430592887
-0.0019400000000000003,-0.22849259962699223,3.2854930761941867
-0.0018430000000000005,-0.22849259962699223,3.3332974093290844
-0.0017459999999999997,-0.22849259962699223,3.3811017424639824
-0.0016489999999999999,-0.22849259962699223,3.4289060755988805
-0.001552,-0.22849259962699223,3.4767104087337786
-0.0014550000000000001,-0.22849259962699223,3.5245147418686766
-0.0013580000000000003,-0.22849259962699223,3.5759963313985668
-0.0012610000000000004,-0.22849259962699223,3.6238006645334648
-0.0011639999999999997,-0.22849259962699223,3.6716049976683629
-0.0010670000000000002,-0.22849259962699223,3.719409330803261
-0.00096999999999999994,-0.22481686621007824,3.7708909203331511
-0.00087300000000000008,-0.22481686621007824,3.8186952534680492
-0.00077600000000000021,-0.22849259962699223,3.8664995866029472
-0.00067899999999999992,-0.22849259962699223,3.9143039197378453
-0.00058200000000000005,-0.22849259962699223,3.9621082528727434
-0.00048500000000000019,-0.22481686621007824,4.0135898424026335
-0.00038799999999999989,-0.22849259962699223,4.0613941755375311
-0.00029100000000000003,-0.22849259962699223,4.1091985086724288
-0.00019400000000000016,-0.22849259962699223,4.1570028418073273
-9.6999999999999864e-05,-0.22849259962699223,4.2048071749422249
0,-0.22849259962699223,4.2526115080771234
9.6999999999999864e-05,-0.22849259962699223,4.300415841212021
0.00019400000000000016,-0.22849259962699223,4.3518974307419116
0.00029100000000000003,-0.22849259962699223,4.3960245074818172
0.00038799999999999989,-0.22849259962699223,4.4438288406167157
0.00048499999999999975,-0.22849259962699223,4.4953104301466054
0.00058200000000000005,-0.22849259962699223,4.5431147632815039
0.00067899999999999992,-0.22849259962699223,4.5909190964164015
0.00077599999999999978,-0.22849259962699223,4.6387234295513
0.00087299999999999986,-0.22849259962699223,4.6902050190811897
0.00096999999999999994,-0.22849259962699223,4.7380093522160882
0.001067,-0.022651528279808063,0.39516954973035145
0.0011639999999999999,-0.015300061445980059,0.049507448601088765
0.001261,-0.026327261696722067,0.089957268946002478
0.001358,-0.048381662198206082,0.11569806371094758
0.0014549999999999999,-0.077787529533518113,0.13408434568590835
0.001552,-0.10719339686883013,0.15247062766086913
0.0016489999999999999,-0.13659926420414215,0.17085690963582992
0.0017459999999999999,-0.16600513153945418,0.1892431916107907
0.001843,-0.19173526545785219,0.21130672998074365
0.0019399999999999999,-0.21011393254242222,0.24440203753567305
0.0020369999999999997,-0.22114113279316422,0.28485185788058676
0.002134,-0.22114113279316422,0.32897893462049266
0.0022309999999999999,-0.22481686621007824,0.3731060113603985
0.0023279999999999998,-0.22481686621007824,0.42091034449529657
0.0024250000000000001,-0.22481686621007824,0.47239193402518675
0.0025219999999999999,-0.22481686621007824,0.52019626716008482
0.0026189999999999998,-0.22481686621007824,0.56800060029498278
0.0027160000000000001,-0.22481686621007824,0.61580493342988085
0.002813,-0.22481686621007824,0.66360926656477892
0.0029099999999999998,-0.22114113279316422,0.71509085609466905
0.0030070000000000001,-0.22481686621007824,0.76289518922956712
0.003104,-0.22481686621007824,0.81069952236446519
0.0032009999999999999,-0.22481686621007824,0.85850385549936314
0.0032980000000000002,-0.22481686621007824,0.90630818863426121
0.003395,-0.22481686621007824,0.95778977816415145
0.0034919999999999999,-0.22481686621007824,1.0055941112990494
0.0035890000000000002,-0.22481686621007824,1.0533984444339475
0.003686,-0.22481686621007824,1.0975255211738535
0.0037829999999999999,-0.22481686621007824,1.1490071107037436
0.0038799999999999998,-0.22481686621007824,1.1968114438386417
0.0039769999999999996,-0.22481686621007824,1.2482930333685318
0.0040739999999999995,-0.22481686621007824,1.2960973665034299
0.0041710000000000002,-0.22481686621007824,1.3402244432433359
0.0042680000000000001,-0.22481686621007824,1.391706032773226
0.004365,-0.22481686621007824,1.4431876223031161
0.0044619999999999998,-0.22481686621007824,1.4909919554380142
0.0045589999999999997,-0.22481686621007824,1.5351190321779198
0.0046560000000000004,-0.22481686621007824,1.5829233653128179
0.0047530000000000003,-0.22481686621007824,1.634404954842708
0.0048500000000000001,-0.22481686621007824,1.682209287977606
0.004947,-0.22481686621007824,1.7336908775074966
0.0050439999999999999,-0.22481686621007824,1.7778179542474022
0.0051409999999999997,-0.22481686621007824,1.8292995437772923
0.0052379999999999996,-0.22481686621007824,1.8771038769121904
0.0053349999999999995,-0.22849259962699223,1.9249082100470885
0.0054319999999999993,-0.22481686621007824,1.9727125431819865
0.0055290000000000001,-0.22481686621007824,2.0205168763168846
0.0056259999999999999,-0.22481686621007824,2.0683212094517827
0.0057229999999999998,-0.22481686621007824,2.1198027989816728
0.0058200000000000005,-0.22849259962699223,2.1676071321165709
0.0059170000000000004,-0.22481686621007824,2.2154114652514689
0.0060140000000000002,-0.22481686621007824,2.2595385419913749
0.0061110000000000001,-0.22849259962699223,2.307342875126273
0.006208,-0.22849259962699223,2.3588244646561631
0.0063049999999999998,-0.22849259962699223,2.4066287977910612
0.0064019999999999997,-0.22849259962699223,2.4544331309259593
0.0064989999999999996,-0.22849259962699223,2.5022374640608573
0.0065959999999999994,-0.22849259962699223,2.5500417971957554
0.0066930000000000002,-0.22849259962699223,2.6015233867256455
0.0067899999999999992,-0.22849259962699223,2.6493277198605436
0.0068870000000000008,-0.22849259962699223,2.6971320529954417
0.0069840000000000006,-0.22849259962699223,2.7449363861303397
0.0070810000000000005,-0.22849259962699223,2.7964179756602299
0.0071780000000000004,-0.22481686621007824,2.8442223087951279
0.0072750000000000002,-0.22849259962699223,2.892026641930026
0.0073720000000000001,-0.22849259962699223,2.9398309750649236
0.0074689999999999999,-0.22849259962699223,2.9876353081998217
0.0075659999999999998,-0.22849259962699223,3.0354396413347198
0.0076629999999999997,-0.22849259962699223,3.0869212308646099
0.0077599999999999995,-0.22849259962699223,3.134725563999508
0.0078569999999999994,-0.22849259962699223,3.182529897134406
0.0079539999999999993,-0.22849259962699223,3.2303342302693041
0.0080509999999999991,-0.22849259962699223,3.2781385634042022
0.0081480000000000007,-0.22849259962699223,3.3296201529340923
0.0082450000000000006,-0.22849259962699223,3.3774244860689904
0.0083420000000000005,-0.22849259962699223,3.4252288192038884
0.0084390000000000003,-0.22849259962699223,3.4730331523387865
0.0085360000000000002,-0.22849259962699223,3.5208374854736846
0.008633,-0.22849259962699223,3.5723190750035747
0.0087299999999999999,-0.22849259962699223,3.6201234081384728
0.0088269999999999998,-0.22849259962699223,3.6679277412733708
0.0089239999999999996,-0.22849259962699223,3.7157320744082689
0.0090209999999999995,-0.22849259962699223,3.767213663938159
0.0091179999999999994,-0.22849259962699223,3.8150179970730571
0.0092149999999999992,-0.22849259962699223,3.8628223302079552
0.0093120000000000008,-0.22849259962699223,3.9069494069478612
0.0094090000000000007,-0.22849259962699223,3.9584309964777513
0.0095060000000000006,-0.22849259962699223,4.0062353296126485
0.0096030000000000004,-0.22849259962699223,4.054039662747547
0.0097000000000000003,-0.22849259962699223,4.1018439958824446
0.0097970000000000002,-0.22849259962699223,4.1533255854123352
0.009894,-0.22849259962699223,4.2011299185472328
0.0099909999999999999,-0.22849259962699223,4.2489342516821313
0.010088,-0.22849259962699223,4.296738584817029
0.010185,-0.22849259962699223,4.3445429179519275
0.010281999999999999,-0.22849259962699223,4.3923472510868251
0.010378999999999999,-0.22849259962699223,4.4401515842217236
0.010475999999999999,-0.22849259962699223,4.4916331737516133
0.010573000000000001,-0.22849259962699223,4.5394375068865118
0.010669999999999999,-0.22849259962699223,4.5872418400214094
0.010766999999999999,-0.22849259962699223,4.635046173156308
0.010864,-0.22849259962699223,4.6828505062912056
0.010961,-0.22849259962699223,4.7343320958210962
0.011058,-0.044705928781292079,0.84379482991939458
0.011155,-0.011624328029066055,0.045830192206096604
0.011252,-0.026327261696722067,0.086280012551010324
0.011349,-0.048381662198206082,0.11202080731595543
0.011446,-0.074111796116604109,0.13408434568590835
0.011542999999999999,-0.10719339686883013,0.14879337126587699
0.011639999999999999,-0.13659926420414215,0.16717965324083778
0.011736999999999999,-0.16600513153945418,0.18556593521579856
0.011833999999999999,-0.19173526545785219,0.21130672998074365
0.011930999999999999,-0.21011393254242222,0.24072478114068091
0.012027999999999999,-0.22114113279316422,0.27749734509060248
0.012125,-0.22481686621007824,0.32530167822550049
0.012222,-0.22481686621007824,0.3731060113603985
0.012319,-0.22481686621007824,0.42091034449529657
0.012416,-0.22481686621007824,0.46871467763019459
0.012513,-0.22481686621007824,0.51651901076509266
0.01261,-0.22481686621007824,0.56432334389999061
0.012707,-0.22849259962699223,0.61212767703488868
0.012803999999999999,-0.22481686621007824,0.65993201016978675
0.012900999999999999,-0.22849259962699223,0.70773634330468471
0.012997999999999999,-0.22481686621007824,0.75921793283457495
0.013094999999999999,-0.22481686621007824,0.80702226596947302
0.013191999999999999,-0.22481686621007824,0.85482659910437098
0.013288999999999999,-0.22481686621007824,0.90263093223926905
0.013386,-0.22849259962699223,0.95043526537416712
0.013483,-0.22849259962699223,0.99823959850906507
0.01358,-0.22849259962699223,1.0460439316439634
0.013677,-0.22849259962699223,1.093848264778861
0.013774,-0.22481686621007824,1.1453298543087516
0.013871,-0.22849259962699223,1.1931341874436496
0.013968,-0.22849259962699223,1.2409385205785473
0.014064999999999999,-0.22849259962699223,1.2924201101084378
0.014161999999999999,-0.22849259962699223,1.3402244432433359
0.014258999999999999,-0.22481686621007824,1.3880287763782335
0.014355999999999999,-0.22481686621007824,1.4358331095131316
0.014452999999999999,-0.22481686621007824,1.4873146990430217
0.014549999999999999,-0.22849259962699223,1.5314417757829277
0.014647,-0.22481686621007824,1.5792461089178258
0.014744,-0.22481686621007824,1.6307276984477159
0.014841,-0.22481686621007824,1.678532031582614
0.014938,-0.22481686621007824,1.7263363647175121
0.015035,-0.22481686621007824,1.7741406978524101
0.015132,-0.22481686621007824,1.8219450309873082
