Lab 7/Experimental Plots/PNP Charac Data1.csv

#Digilent WaveForms Oscilloscope Acquisition
#Device Name: Discovery2NI
#Serial Number: SN:210321A291F6
#Date Time: 2018-03-21 14:32:55.314
#Sample rate: 20000Hz
#Samples: 256
#Trigger: Source: Channel 1 Type: Edge Condition: Rising Level: 0 V Hyst.: Auto HoldOff: 0 s
#Channel 1: Range: 1 V/div Offset: 0 V
#Channel 2: Range: 1 V/div Offset: 0 V

Time (s),Channel 1 (V),Channel 2 (V)
0.051549999999999999,0.26405567823948417,-0.65652577923740674
0.0516,0.26405567823948417,-0.63078498447246101
0.051650000000000001,0.26773141165639819,-0.60872144610250722
0.051700000000000003,0.26405567823948417,-0.5829806513375615
0.051750000000000004,0.26405567823948395,-0.56091711296760771
0.051799999999999999,0.26037994482257037,-0.53517631820266554
0.05185,0.26037994482257015,-0.50943552343771981
0.051900000000000002,0.26405567823948417,-0.48369472867277391
0.051950000000000003,0.26405567823948417,-0.45795393390782813
0.052000000000000005,0.26405567823948417,-0.43221313914288245
0.052049999999999999,0.26405567823948417,-0.41014960077293172
0.0521,0.26037994482257021,-0.3844088060079861
0.052150000000000002,0.2603799448225701,-0.36234526763803238
0.052200000000000003,0.2567042114056563,-0.3366044728730867
0.052250000000000005,0.26037994482256988,-0.3145409345031332
0.052299999999999999,0.2567042114056563,-0.29247739613318274
0.052350000000000001,0.25302847798874223,-0.27041385776322918
0.052400000000000002,0.2493527445718281,-0.24835031939327565
0.052450000000000004,0.24567701115491383,-0.22996403741831434
0.052500000000000005,0.23832554432108535,-0.21157775544335328
0.052549999999999999,0.2272983440703446,-0.19686872986338635
0.052600000000000001,0.21259541040268831,-0.18215970428341732
0.052650000000000002,0.19789247673503188,-0.17112793509844051
0.052700000000000004,0.18318954306737545,-0.16377342230845585
0.052750000000000005,0.1684866093997188,-0.15274165312347932
0.0528,0.15010794231515084,-0.14538714033349584
0.052850000000000001,0.13172927523058031,-0.13803262754351134
0.052900000000000003,0.11335060814600963,-0.13067811475352678
0.052950000000000004,0.098647674478352987,-0.12700085835853411
0.052999999999999999,0.080269007393785063,-0.1159690891735589
0.05305,0.061890340309214531,-0.10861457638357418
0.053100000000000001,0.050863140058471992,-0.10126006359358965
0.053150000000000003,0.032484472973901564,-0.090228294408612977
0.053200000000000004,0.017781539306245341,-0.082873781618628031
0.053249999999999999,0.0067543390555045851,-0.068164756038661081
0.0533,-0.004272861195237735,-0.049778474063699979
0.053350000000000002,-0.0079485946121520528,-0.031392192088738675
0.053400000000000003,0.30081301240862462,-3.8814796376455489
0.053450000000000004,0.31551594607627997,-4.6831215317538142
0.053499999999999999,0.3118402126593664,-4.6389944550139139
0.05355,0.31184021265936618,-4.6132536602489669
0.053600000000000002,0.31184021265936618,-4.5875128654840207
0.053650000000000003,0.30816447924245222,-4.5617720707190745
0.053699999999999998,0.30816447924245222,-4.5360312759541328
0.053749999999999999,0.30816447924245222,-4.5102904811891866
0.053800000000000001,0.31184021265936612,-4.4845496864242405
0.053850000000000002,0.30816447924245222,-4.4624861480542872
0.053900000000000003,0.30816447924245222,-4.4367453532893419
0.053949999999999998,0.30816447924245222,-4.4110045585243993
0.053999999999999999,0.30816447924245222,-4.3852637637594531
0.054050000000000001,0.30816447924245222,-4.363200225389499
0.054100000000000002,0.30816447924245222,-4.3374594306245546
0.054150000000000004,0.30816447924245222,-4.3117186358596085
0.054199999999999998,0.30816447924245222,-4.2896550974896579
0.05425,0.30816447924245222,-4.2639143027247117
0.054300000000000001,0.30816447924245222,-4.2381735079597656
0.054350000000000002,0.30816447924245222,-4.2124327131948212
0.054400000000000004,0.30816447924245222,-4.186691918429875
0.054449999999999998,0.30816447924245222,-4.1646283800599235
0.0545,0.30816447924245222,-4.1388875852949782
0.054550000000000001,0.30816447924245222,-4.113146790530033
0.054600000000000003,0.3044887458255382,-4.0910832521600788
0.054650000000000004,0.3044887458255382,-4.0653424573951327
0.054699999999999999,0.3044887458255382,-4.0396016626301909
0.05475,0.3044887458255382,-4.0138608678652457
0.054800000000000001,0.3044887458255382,-3.988120073100299
0.054850000000000003,0.30448874582553831,-3.9623792783353533
0.054900000000000004,0.30816447924245199,-3.9403157399653996
0.054949999999999999,0.30448874582553842,-3.914574945200457
0.055,0.3044887458255382,-3.8925114068305033
0.055050000000000002,0.3044887458255382,-3.8667706120655576
0.055100000000000003,0.3044887458255382,-3.8410298173006119
0.055150000000000005,0.3044887458255382,-3.8152890225356662
0.055199999999999999,0.3044887458255382,-3.789548227770724
0.05525,0.3044887458255382,-3.7674846894007699
0.055300000000000002,0.3044887458255382,-3.7417438946358246
0.055350000000000003,0.3044887458255382,-3.7160030998708784
0.055400000000000005,0.3044887458255382,-3.6902623051059331
0.055449999999999999,0.3044887458255382,-3.6681987667359821
0.055500000000000001,0.3044887458255382,-3.6424579719710368
0.055550000000000002,0.3044887458255382,-3.6203944336010827
0.055600000000000004,0.30448874582553803,-3.5946536388361374
0.055650000000000005,0.30081301240862418,-3.5689128440711912
0.0557,0.30081301240862418,-3.5431720493062491
0.055750000000000001,0.30081301240862418,-3.5211085109362954
0.055800000000000002,0.30081301240862418,-3.4953677161713497
0.055850000000000004,0.30081301240862418,-3.4696269214064039
0.055899999999999998,0.30081301240862418,-3.4438861266414609
0.05595,0.30081301240862418,-3.4218225882715072
0.056000000000000001,0.30081301240862418,-3.3960817935065619
0.056050000000000003,0.30081301240862418,-3.3703409987416157
0.056100000000000004,0.30081301240862418,-3.34460020397667
0.056149999999999999,0.30081301240862418,-3.3188594092117278
0.0562,0.30081301240862418,-3.2931186144467821
0.056250000000000001,0.30081301240862418,-3.2710550760768284
0.056300000000000003,0.30081301240862407,-3.2453142813118823
0.056350000000000004,0.29713727899171016,-3.219573486546937
0.056399999999999999,0.29713727899171016,-3.1975099481769864
0.05645,0.29713727899171016,-3.1754464098070327
0.056500000000000002,0.29713727899171016,-3.149705615042087
0.056550000000000003,0.29713727899171016,-3.1239648202771413
0.056600000000000004,0.29713727899171016,-3.0982240255121956
0.056649999999999999,0.29713727899171016,-3.0724832307472534
0.0567,0.29713727899171016,-3.0467424359823077
0.056750000000000002,0.29713727899171016,-3.024678897612354
0.056800000000000003,0.29713727899171016,-2.9989381028474078
0.056850000000000005,0.29713727899171016,-2.9731973080824625
0.056899999999999999,0.29713727899171016,-2.9511337697125115
0.056950000000000001,0.29713727899171016,-2.9253929749475662
0.057000000000000002,0.29713727899171016,-2.9033294365776121
0.057050000000000003,0.29713727899171016,-2.8775886418126668
0.057100000000000005,0.29713727899171016,-2.8518478470477207
0.057149999999999999,0.29713727899171016,-2.8261070522827785
0.057200000000000001,0.29713727899171016,-2.8040435139128248
0.057250000000000002,0.2934615455747962,-2.774625462752887
0.057300000000000004,0.2934615455747962,-2.7488846679879413
0.057349999999999998,0.2934615455747962,-2.7268211296179912
0.0574,0.2934615455747962,-2.7047575912480371
0.057450000000000001,0.2934615455747962,-2.6790167964830918
0.057500000000000002,0.2934615455747962,-2.6532760017181456
0.057550000000000004,0.2934615455747962,-2.6275352069532003
0.057599999999999998,0.2934615455747962,-2.6017944121882572
0.05765,0.2934615455747962,-2.5760536174233115
0.057700000000000001,0.28978581215788218,-2.5539900790533578
0.057750000000000003,0.28978581215788218,-2.5282492842884126
0.057800000000000004,0.28978581215788218,-2.5061857459184584
0.057849999999999999,0.28978581215788218,-2.4804449511535163
0.0579,0.28978581215788218,-2.4547041563885705
0.057950000000000002,0.28978581215788218,-2.4289633616236244
0.058000000000000003,0.28978581215788218,-2.4068998232536707
0.058050000000000004,0.28978581215788218,-2.3811590284887254
0.058099999999999999,0.28978581215788218,-2.3554182337237828
0.05815,0.28978581215788218,-2.3296774389588371
0.058200000000000002,0.28978581215788218,-2.3076139005888834
0.058250000000000003,0.28978581215788218,-2.2818731058239372
0.058300000000000005,0.28978581215788218,-2.2561323110589919
0.058349999999999999,0.28978581215788218,-2.2340687726890418
0.058400000000000001,0.28978581215788218,-2.2120052343190877
0.058450000000000002,0.28611007874096817,-2.1899416959491345
0.058500000000000003,0.28978581215788218,-2.1605236447891962
0.058550000000000005,0.28978581215788196,-2.1347828500242505
0.058599999999999999,0.28611007874096839,-2.1127193116543004
0.058650000000000001,0.28978581215788207,-2.0869785168893551
0.058700000000000002,0.28611007874096817,-2.0612377221244089
0.058750000000000004,0.28978581215788196,-2.0354969273594623
0.058799999999999998,0.28611007874096839,-2.0134333889895122
0.05885,0.28611007874096817,-1.9876925942245667
0.058900000000000001,0.28611007874096817,-1.9619517994596207
0.058950000000000002,0.28611007874096817,-1.9362110046946752
0.059000000000000004,0.28611007874096817,-1.9141474663247211
0.059049999999999998,0.28611007874096817,-1.8884066715597794
0.0591,0.28611007874096817,-1.8626658767948332
0.059150000000000001,0.28611007874096817,-1.8406023384248797
0.059200000000000003,0.28243434532405431,-1.8148615436599338
0.059250000000000004,0.28611007874096817,-1.7891207488949881
0.059299999999999999,0.28611007874096817,-1.7633799541300459
0.05935,0.28611007874096817,-1.7413164157600922
0.059400000000000001,0.2824343453240542,-1.7155756209951463
0.059450000000000003,0.28243434532405431,-1.6898348262302008
0.059500000000000004,0.28611007874096794,-1.6677712878602466
0.059549999999999999,0.28243434532405443,-1.6420304930953049
0.0596,0.2824343453240542,-1.6126124419353669
0.059650000000000002,0.2824343453240542,-1.5905489035654132
0.059700000000000003,0.2787586119071403,-1.5648081088004673
0.059750000000000004,0.2824343453240542,-1.5390673140355213
0.059799999999999999,0.2824343453240542,-1.5170037756655712
0.05985,0.2824343453240542,-1.4949402372956178
0.059900000000000002,0.2824343453240542,-1.4691994425306718
0.059950000000000003,0.28243434532405409,-1.4434586477657263
0.060000000000000005,0.27875861190714019,-1.4177178530007803
0.060049999999999999,0.27875861190714019,-1.3956543146308302
0.060100000000000001,0.27875861190714019,-1.3699135198658836
0.060150000000000002,0.27875861190714019,-1.3441727251009383
0.060200000000000004,0.27875861190713996,-1.322109186730984
0.060249999999999998,0.27508287849022639,-1.2963683919660423
0.060299999999999999,0.27508287849022617,-1.270627597201097
0.060350000000000001,0.27508287849022617,-1.2485640588311426
0.060400000000000002,0.27875861190714019,-1.2228232640661973
0.060450000000000004,0.27508287849022617,-1.1970824693012505
0.060499999999999998,0.27508287849022617,-1.1713416745363088
0.06055,0.27508287849022617,-1.1492781361663551
0.060600000000000001,0.27508287849022617,-1.1235373414014092
0.060650000000000003,0.27508287849022617,-1.0941192902414711
0.060700000000000004,0.27508287849022617,-1.0720557518715177
0.060749999999999998,0.27508287849022617,-1.0499922135015671
0.0608,0.27140714507331226,-1.0242514187366216
0.060850000000000001,0.27140714507331215,-1.0021878803666682
0.060900000000000003,0.27508287849022606,-0.97644708560172211
0.060950000000000004,0.27140714507331215,-0.95070629083677638
0.060999999999999999,0.27140714507331215,-0.92496549607183409
0.06105,0.27140714507331215,-0.90290195770188042
0.061100000000000002,0.27140714507331215,-0.87716116293693469
0.061150000000000003,0.27140714507331215,-0.85142036817198885
0.061200000000000004,0.27140714507331193,-0.8293568298020354
0.061249999999999999,0.26773141165639841,-0.80729329143208495
0.0613,0.26773141165639819,-0.78155249666713933
0.061350000000000002,0.27140714507331215,-0.75581170190219349
0.061400000000000003,0.26773141165639819,-0.73007090713724765
0.061450000000000005,0.26773141165639819,-0.70433011237230203
0.061499999999999999,0.26773141165639819,-0.68226657400235158
0.061550000000000001,0.26405567823948417,-0.65652577923740529
0.061600000000000002,0.26405567823948417,-0.63078498447246023
0.061650000000000003,0.26405567823948417,-0.60872144610250578
0.061700000000000005,0.26405567823948417,-0.58298065133756094
0.061749999999999999,0.26405567823948417,-0.56091711296761038
0.061800000000000001,0.26405567823948417,-0.53517631820266409
0.061850000000000002,0.26405567823948417,-0.50943552343771903
0.061900000000000004,0.26405567823948395,-0.48369472867277247
0.061950000000000005,0.26037994482257015,-0.45795393390782757
0.062,0.26037994482257015,-0.43589039553787717
0.062050000000000001,0.26037994482257015,-0.41014960077293078
0.062100000000000002,0.26037994482257015,-0.38440880600798571
0.062150000000000004,0.26037994482256993,-0.36234526763803149
0.062200000000000005,0.25670421140565614,-0.34028172926807837
0.06225,0.25670421140565614,-0.31454093450313547
0.062300000000000001,0.25670421140565614,-0.2924773961331818
0.062350000000000003,0.25302847798874206,-0.27041385776322824
0.062400000000000004,0.24935274457182793,-0.24835031939327465
0.062449999999999999,0.24567701115491436,-0.22628678102332422
0.0625,0.23832554432108635,-0.21157775544335475
0.062549999999999994,0.22729834407034569,-0.1968687298633878
0.062600000000000003,0.21259541040268781,-0.18215970428341688
0.062649999999999997,0.20156821015194706,-0.1748051914934334
0.062700000000000006,0.18686527648428822,-0.16377342230845537
0.06275,0.16481087598280672,-0.15274165312348015
0.062799999999999995,0.15010794231515215,-0.14538714033349659
0.062850000000000003,0.13172927523057953,-0.13803262754351101
0.062899999999999998,0.11335060814601161,-0.13067811475352753
0.062950000000000006,0.09864767447835246,-0.12332360196354196
0.063,0.08026900739378455,-0.11596908917355848
0.063049999999999995,0.065566073726129687,-0.1086145763835748
0.063100000000000003,0.047187406641557156,-0.10126006359358902
0.063149999999999998,0.03248447297390282,-0.09022829440861381
0.063200000000000006,0.017781539306244716,-0.082873781618627199
0.063250000000000001,0.0067543390555039589,-0.068164756038660249
0.063299999999999995,-0.0042728611952367948,-0.053455730458693292
0.063350000000000004,-0.011624328029048503,-0.03139219208895648
0.063399999999999998,0.29713727899169262,-3.863093355670348
0.063450000000000006,0.31551594607627975,-4.6831215317538115
0.063500000000000001,0.31184021265936618,-4.6389944550139113
0.063549999999999995,0.31184021265936618,-4.6132536602489687
0.063600000000000004,0.30816447924245222,-4.5838356090890269
0.063649999999999998,0.30816447924245222,-4.5580948143240851
0.063700000000000007,0.31184021265936618,-4.5360312759541284
0.063750000000000001,0.31184021265936618,-4.5102904811891857
0.063799999999999996,0.31184021265936618,-4.4845496864242431
0.063850000000000004,0.31184021265936596,-4.4588088916592943
0.063899999999999998,0.30816447924245244,-4.4367453532893437
0.063950000000000007,0.30816447924245222,-4.4110045585243949
0.064000000000000001,0.30816447924245222,-4.3852637637594523
0.064049999999999996,0.30816447924245222,-4.3632002253895017
0.064100000000000004,0.30816447924245222,-4.3374594306245529
0.064149999999999999,0.30816447924245222,-4.3117186358596111
0.064200000000000007,0.30816447924245222,-4.2896550974896535
0.064250000000000002,0.30816447924245222,-4.2639143027247108
0.064299999999999996,0.30816447924245222,-4.2381735079597682
