Lab 7/Experimental Plots/PNP Charac Data.csv

#Digilent WaveForms Oscilloscope Acquisition
#Device Name: Discovery2NI
#Serial Number: SN:210321A291F6
#Date Time: 2018-03-21 14:41:19.980
#Sample rate: 20000Hz
#Samples: 256
#Trigger: Source: Channel 1 Type: Edge Condition: Rising Level: 0 V Hyst.: Auto HoldOff: 0 s
#Channel 1: Range: 1 V/div Offset: 0 V
#Channel 2: Range: 1 V/div Offset: 0 V

Time (s),Channel 1 (V),Channel 2 (V)
0.0557,1.0028780950391991,-0.70433011237230325
0.055750000000000001,0.99552662820537097,-0.70433011237230325
0.055800000000000002,0.98817516137154282,-0.70433011237230325
0.055850000000000004,0.98082369453771456,-0.70433011237230325
0.055900000000000005,0.97714796112080027,-0.70433011237230325
0.05595,0.96979649428697323,-0.70433011237230325
0.056000000000000001,0.96244502745314486,-0.70433011237230325
0.056050000000000003,0.95876929403623068,-0.70433011237230325
0.056100000000000004,0.95141782720240253,-0.7006528559773112
0.056150000000000005,0.94406636036857439,-0.7006528559773112
0.0562,0.94039062695166076,-0.7006528559773112
0.056250000000000001,0.93303916011783283,-0.7006528559773112
0.056300000000000003,0.92568769328400469,-0.7006528559773112
0.056350000000000004,0.91833622645017654,-0.70433011237230325
0.056400000000000006,0.91466049303326213,-0.70433011237230325
0.05645,0.9073090261994351,-0.70433011237230325
0.056500000000000002,0.89995755936560673,-0.7006528559773112
0.056550000000000003,0.89628182594869255,-0.7006528559773112
0.056600000000000004,0.88893035911486462,-0.7006528559773112
0.056650000000000006,0.88525462569795033,-0.7006528559773112
0.0567,0.8815788922810367,-0.7006528559773112
0.056750000000000002,0.87422742544720877,-0.7006528559773112
0.056800000000000003,0.86687595861338074,-0.7006528559773112
0.056850000000000005,0.86320022519646622,-0.70065285597731108
0.056900000000000006,0.85584875836263807,-0.69697559958231903
0.056950000000000001,0.84849729152881104,-0.69697559958231903
0.057000000000000002,0.84114582469498267,-0.69697559958231903
0.057050000000000003,0.83747009127806837,-0.69697559958231903
0.057100000000000005,0.83011862444424023,-0.69697559958231925
0.057149999999999999,0.82276715761041297,-0.70065285597731097
0.057200000000000001,0.81909142419349867,-0.69697559958231914
0.057250000000000002,0.81173995735967064,-0.69697559958231903
0.057300000000000004,0.80806422394275645,-0.69697559958231903
0.057350000000000005,0.80071275710892831,-0.69697559958231903
0.0574,0.79703702369201479,-0.69697559958231903
0.057450000000000001,0.78968555685818687,-0.69697559958231903
0.057500000000000002,0.7823340900243585,-0.69697559958231903
0.057550000000000004,0.77498262319053046,-0.69697559958231903
0.057600000000000005,0.77130688977361617,-0.69697559958231903
0.05765,0.76395542293978891,-0.69697559958231903
0.057700000000000001,0.75660395610596076,-0.69697559958231903
0.057750000000000003,0.74925248927213262,-0.69697559958231903
0.057800000000000004,0.74557675585521843,-0.69697559958231903
0.057849999999999999,0.73822528902139106,-0.69697559958231903
0.0579,0.73087382218756292,-0.69697559958231903
0.057950000000000002,0.72719808877064862,-0.69329834318732686
0.058000000000000003,0.72352235535373433,-0.69329834318732686
0.058050000000000004,0.71617088851990618,-0.69329834318732686
0.058099999999999999,0.70881942168607914,-0.69329834318732686
0.05815,0.70514368826916451,-0.69329834318732686
0.058200000000000002,0.69779222143533659,-0.69329834318732686
0.058250000000000003,0.69044075460150844,-0.69329834318732686
0.058300000000000005,0.6830892877676803,-0.69329834318732686
0.058349999999999999,0.67941355435076667,-0.69329834318732686
0.058400000000000001,0.67206208751693886,-0.69329834318732686
0.058450000000000002,0.66471062068311049,-0.69329834318732686
0.058500000000000003,0.65735915384928245,-0.69329834318732686
0.058550000000000005,0.65368342043236816,-0.69329834318732686
0.058599999999999999,0.64633195359854101,-0.69329834318732686
0.058650000000000001,0.63898048676471264,-0.69329834318732686
0.058700000000000002,0.63530475334779846,-0.68962108679233469
0.058750000000000004,0.62795328651397031,-0.68962108679233469
0.058800000000000005,0.62060181968014216,-0.68962108679233469
0.05885,0.61692608626322865,-0.68962108679233469
0.058900000000000001,0.60957461942940072,-0.68962108679233469
0.058950000000000002,0.60222315259557235,-0.68962108679233469
0.059000000000000004,0.59854741917865817,-0.68962108679233469
0.059050000000000005,0.59119595234483024,-0.68962108679233469
0.0591,0.58752021892791673,-0.68962108679233469
0.059150000000000001,0.58016875209408858,-0.68962108679233469
0.059200000000000003,0.5764930186771744,-0.68962108679233469
0.059250000000000004,0.56914155184334625,-0.68962108679233458
0.059300000000000005,0.56179008500951788,-0.68594383039734252
0.05935,0.55443861817569084,-0.68594383039734252
0.059400000000000001,0.55076288475877655,-0.68962108679233458
0.059450000000000003,0.54341141792494829,-0.68594383039734252
0.059500000000000004,0.53605995109112015,-0.68594383039734252
0.059550000000000006,0.52870848425729222,-0.68594383039734252
0.0596,0.52503275084037859,-0.68594383039734252
0.059650000000000002,0.51768128400655045,-0.68594383039734252
0.059700000000000003,0.51400555058963626,-0.68594383039734252
0.059750000000000004,0.50665408375580812,-0.68594383039734252
0.059800000000000006,0.49930261692197986,-0.68594383039734252
0.05985,0.49195115008815266,-0.68594383039734252
0.059900000000000002,0.48827541667123842,-0.68594383039734252
0.059950000000000003,0.48092394983741021,-0.68226657400235036
0.060000000000000005,0.47357248300358218,-0.68594383039734252
0.060049999999999999,0.46989674958666855,-0.68594383039734252
0.060100000000000001,0.46254528275284057,-0.68226657400235047
0.060150000000000002,0.45519381591901231,-0.68226657400235036
0.060200000000000004,0.45151808250209807,-0.68594383039734241
0.060250000000000005,0.44416661566827009,-0.68226657400235036
0.060299999999999999,0.44049088225135652,-0.68226657400235036
0.060350000000000001,0.43313941541752854,-0.68226657400235036
0.060400000000000002,0.42578794858370028,-0.68226657400235036
0.060450000000000004,0.41843648174987219,-0.68226657400235025
0.060500000000000005,0.41476074833295784,-0.67858931760735819
0.06055,0.40740928149913075,-0.67858931760735819
0.060600000000000001,0.4037335480822164,-0.67491206121236613
0.060650000000000003,0.39638208124838825,-0.67858931760735819
0.060700000000000004,0.39270634783147407,-0.67858931760735808
0.060750000000000005,0.38535488099764581,-0.67491206121236602
0.0608,0.37800341416381872,-0.67491206121236602
0.060850000000000001,0.37065194732999046,-0.67491206121236602
0.060900000000000003,0.36697621391307622,-0.67491206121236602
0.060950000000000004,0.35962474707924813,-0.67491206121236602
0.061000000000000006,0.35594901366233378,-0.67491206121236602
0.06105,0.34859754682850658,-0.67491206121236602
0.061100000000000002,0.34124607999467832,-0.67491206121236602
0.061150000000000003,0.33389461316085017,-0.67123480481737385
0.061200000000000004,0.33021887974393588,-0.67123480481737385
0.061250000000000006,0.32286741291010773,-0.67123480481737385
0.0613,0.31551594607628053,-0.67123480481737385
0.061350000000000002,0.31184021265936623,-0.67123480481737385
0.061400000000000003,0.30816447924245211,-0.6675575484223818
0.061450000000000005,0.30081301240862385,-0.6675575484223818
0.061499999999999999,0.2934615455747967,-0.6675575484223818
0.061550000000000001,0.2861100787409685,-0.6675575484223818
0.061600000000000002,0.28243434532405426,-0.6675575484223818
0.061650000000000003,0.27508287849022611,-0.6675575484223818
0.061700000000000005,0.27140714507331171,-0.6675575484223818
0.061749999999999999,0.26037994482257076,-0.6675575484223818
0.061800000000000001,0.25670421140565625,-0.6675575484223818
0.061850000000000002,0.24935274457182816,-0.66388029202738963
0.061900000000000004,0.24200127773799993,-0.66755754842238169
0.061950000000000005,0.23464981090417192,-0.66388029202738963
0.062,0.23097407748725837,-0.66388029202738963
0.062050000000000001,0.22362261065343036,-0.66388029202738963
0.062100000000000002,0.21994687723651613,-0.66388029202738963
0.062150000000000004,0.2125954104026879,-0.66388029202738952
0.062200000000000005,0.20524394356885989,-0.66020303563239746
0.06225,0.20156821015194634,-0.66020303563239746
0.062300000000000001,0.19421674331811833,-0.66020303563239746
0.062350000000000003,0.19054100990120409,-0.66020303563239746
0.062400000000000004,0.18318954306737587,-0.65652577923740529
0.062450000000000006,0.17583807623354786,-0.65652577923740529
0.0625,0.17216234281663431,-0.65652577923740529
0.062550000000000008,0.16481087598280525,-0.65652577923740529
0.062600000000000003,0.15745940914897807,-0.65652577923740529
0.062649999999999997,0.1537836757320645,-0.65284852284241357
0.062700000000000006,0.15010794231514943,-0.65284852284241313
0.06275,0.13908074206440871,-0.65284852284241313
0.062800000000000009,0.13540500864749322,-0.64917126644742096
0.062850000000000003,0.12805354181366604,-0.64917126644742096
0.062899999999999998,0.12437780839675237,-0.64917126644742096
0.062950000000000006,0.12070207497983763,-0.64549401005242879
0.063,0.11335060814601025,-0.64549401005242879
0.063050000000000009,0.10967487472909521,-0.64549401005242879
0.063100000000000003,0.10232340789526782,-0.64549401005242868
0.063149999999999998,0.094971941061440648,-0.64181675365743696
0.063200000000000006,0.091296207644525396,-0.64181675365743629
0.063250000000000001,0.083944740810698235,-0.63813949726244457
0.063300000000000009,0.080269007393782982,-0.6381394972624439
0.063350000000000004,0.072917540559955904,-0.63446224086745229
0.063399999999999998,0.06924180714304233,-0.63446224086745229
0.063450000000000006,0.061890340309213691,-0.63446224086745195
0.063500000000000001,0.058214606892300104,-0.63078498447246034
0.063549999999999995,0.050863140058473033,-0.62710772807746862
0.063600000000000004,0.04718740664155778,-0.6234304716824759
0.063649999999999998,0.039835939807730612,-0.6234304716824759
0.063700000000000007,0.03616020639081536,-0.61975321528748373
0.063750000000000001,0.028808739556988185,-0.61975321528748373
0.063799999999999996,0.025133006140074493,-0.61607595889249211
0.063850000000000004,0.017781539306245864,-0.61239870249749917
0.063899999999999998,0.014105805889332279,-0.60504418970751572
0.063950000000000007,0.010430072472417647,-0.60136693331252256
0.064000000000000001,0.006754339055504063,-0.59768967691753083
0.064049999999999996,0.0030786056385904781,-0.59401242052253922
0.064100000000000004,-0.00059712777832415147,-0.58665790773255411
0.064149999999999999,-0.0042728611952378408,-0.57930339494257044
0.064200000000000007,-0.0079485946121523668,-0.56827162575759282
0.064250000000000002,-0.011624328029066055,-0.56091711296760915
0.064299999999999996,-0.011624328029066055,-0.54620808738764226
0.064350000000000004,-0.011624328029066263,-0.53149906180767093
0.064399999999999999,-0.01530006144597985,-0.5131127798327122
0.064450000000000007,-0.011624328029066473,-0.4947264978577483
0.064500000000000002,-0.015300061445980059,-0.47634021588278963
0.064549999999999996,-0.015300061445980059,-0.45427667751283918
0.064600000000000005,-0.015300061445980059,-0.43589039553787462
0.064649999999999999,-0.015300061445980059,-0.41382685716792422
0.064700000000000008,-0.015300061445980059,-0.3917633187979675
0.064750000000000002,-0.015300061445980059,-0.36969978042801704
0.064799999999999996,-0.015300061445980059,-0.35131349845305837
0.064850000000000005,-0.015300061445980059,-0.32924996008310209
0.064899999999999999,-0.015300061445980059,-0.30718642171315169
0.064950000000000008,-0.015300061445980059,-0.28880013973818669
0.065000000000000002,-0.015300061445980059,-0.26305934497324451
0.065049999999999997,-0.015300061445980059,-0.24467306299828584
0.065100000000000005,-0.015300061445980059,-0.22260952462832956
0.06515,-0.015300061445980059,-0.20054598625837913
0.065200000000000008,-0.015300061445980059,-0.1821597042834146
0.065250000000000002,-0.015300061445980059,-0.16009616591346415
0.065299999999999997,-0.015300061445980059,-0.13803262754351373
0.065350000000000005,-0.015300061445980059,-0.11596908917355724
0.0654,-0.015300061445980059,-0.097582807198598534
0.065450000000000008,-0.015300061445980059,-0.075519268828642044
0.065500000000000003,-0.015300061445980059,-0.053455730458691619
0.065549999999999997,-0.015300061445980059,-0.038746704878724662
0.065600000000000006,0.99552662820537163,-0.70800736876729542
0.06565,1.0102295618730257,-0.70800736876729542
0.065700000000000008,0.99920236162228426,-0.70433011237230325
0.065750000000000003,0.99552662820537074,-0.70433011237230325
0.065799999999999997,0.98817516137154371,-0.70433011237230325
0.065850000000000006,0.98082369453771445,-0.7006528559773112
0.0659,0.97714796112080093,-0.7006528559773112
0.065950000000000009,0.9697964942869719,-0.7006528559773112
0.066000000000000003,0.96244502745314464,-0.7006528559773112
0.066049999999999998,0.95876929403623112,-0.7006528559773112
0.066100000000000006,0.94774209378548857,-0.70433011237230325
0.06615,0.94406636036857483,-0.70433011237230325
0.066200000000000009,0.93671489353474624,-0.7006528559773112
0.066250000000000003,0.93303916011783272,-0.7006528559773112
0.066299999999999998,0.92568769328400546,-0.7006528559773112
0.066350000000000006,0.91833622645017643,-0.7006528559773112
0.066400000000000001,0.9146604930332628,-0.7006528559773112
0.066450000000000009,0.90730902619943432,-0.7006528559773112
0.066500000000000004,0.90363329278252036,-0.7006528559773112
0.066549999999999998,0.89628182594869332,-0.7006528559773112
0.066600000000000006,0.8889303591148644,-0.7006528559773112
0.066650000000000001,0.88525462569795066,-0.7006528559773112
0.066700000000000009,0.87790315886412207,-0.7006528559773112
0.066750000000000004,0.87422742544720844,-0.7006528559773112
0.066799999999999998,0.8668759586133814,-0.7006528559773112
0.066850000000000007,0.85952449177955192,-0.7006528559773112
0.066900000000000001,0.85217302494572489,-0.7006528559773112
0.06695000000000001,0.84849729152880971,-0.7006528559773112
0.067000000000000004,0.84114582469498245,-0.7006528559773112
0.067049999999999998,0.83747009127806893,-0.7006528559773112
0.067100000000000007,0.83011862444424034,-0.70065285597731086
0.067150000000000001,0.82644289102732682,-0.69697559958231914
0.06720000000000001,0.81909142419349756,-0.69697559958231903
0.067250000000000004,0.81173995735967042,-0.69697559958231903
0.067299999999999999,0.8080642239427569,-0.69697559958231903
0.067350000000000007,0.80071275710892764,-0.69697559958231903
0.067400000000000002,0.79336129027510061,-0.69697559958231903
0.067449999999999996,0.78968555685818709,-0.69697559958231903
0.067500000000000004,0.78233409002435805,-0.69697559958231903
0.067549999999999999,0.77498262319053102,-0.69697559958231903
0.067600000000000007,0.7676311563567022,-0.69697559958231903
0.067650000000000002,0.76395542293978846,-0.69697559958231903
0.067699999999999996,0.75660395610596143,-0.6932983431873273
0.067750000000000005,0.75292822268904613,-0.69697559958231903
0.067799999999999999,0.7455767558552191,-0.69697559958231903
0.067850000000000008,0.74190102243830358,-0.69329834318732686
0.067900000000000002,0.73454955560447655,-0.69329834318732686
0.067949999999999997,0.72719808877064951,-0.69329834318732686
0.068000000000000005,0.71984662193682003,-0.69329834318732686
0.068049999999999999,0.71249515510299299,-0.69329834318732686
0.068100000000000008,0.7088194216860777,-0.69329834318732686
0.068150000000000002,0.70146795485225044,-0.69329834318732686
0.068199999999999997,0.69411648801842341,-0.69329834318732686
0.068250000000000005,0.69044075460150811,-0.69329834318732686
0.0683,0.68308928776768085,-0.69329834318732686
0.068350000000000008,0.67941355435076556,-0.69329834318732686
0.068400000000000002,0.67206208751693852,-0.69329834318732686
0.068449999999999997,0.66471062068311126,-0.69329834318732686
